*** Life<Cell> 42x14 ***

Generation = 0, Population = 86.
0----0----0--0
-0-------0----
------0-----0-
---------0----
--------------
-0-0-0--------
--------------
---------00--0
----0---------
-0--0---------
0---0---00----
---0----------
--0-----------
------0-------
-0------0-----
--------0--0--
--------0-----
-------------0
-0-0--------0-
-------00-0---
-0----0--0----
--------------
--------000---
--------------
0----------00-
--0--0--------
--0-0-----0-0-
00-----0------
----------0---
--------0-0---
0-0-00---000--
-0------------
--0--00-------
---0-0--------
-0---0--0-----
---------0----
----0------0--
---------00-0-
0-------------
--0-------0---
0---0---------
---0----------

Generation = 1, Population = 207.
----0-0----00-
--0--00-0---00
-0---0-0---0-0
------0-0-0-0-
-0-0-0---0----
0-----0-------
-0-0-0---00--0
----0---01100-
-0-010---00--0
--00-0--00----
----10-0110---
0-------00----
-0----0-------
-00--0-00-----
0-0---0010-0--
-0-----0-00-0-
-------010-0-0
-0-0----0-----
0---0--00-00--
---0---110-00-
0-0--0--------
-0----0-0-0---
-------01-10--
0-------00000-
-00--0----0110
0010--0---00--
0-1----0-0---0
11--0-0-0---0-
00-----00010--
0-0-00-0-0----
-0--110--1110-
--0-0-0--000--
----0-10------
-0------0-----
0-000100------
-0--00----00--
---0-0--------
0---0---0110-0
-00------0--0-
-0-00----0-0--
-00--0----0---
0-0-----------

Generation = 2, Population = 204.
--00-0100-01--
---0---0-0-0--
0---01--0----1
---0-0-0-0-0--
------0-----0-
-0---0-0--0--0
----0---------
---010-01---10
0-0-*-0-01----
--1---0--10--0
0-0-*--1--10--
----000-------
-1-------0----
---00------0--
--10--1-*-0---
---------11---
---0--0-*-0-0-
-------0--0--0
---0-00-101---
-----00-*10-10
-0--0--0-0000-
-------01-1---
00-----1*0*---
--0--0--------
0---0---0-1-*1
-1-10---------
--*-0-0-0--0--
*--0----100---
1----0--11-1--
1-----010-0-0-
--00**--0***10
-----0--0-1---
-0001--1-000--
---0-0-0-0----
--1-1*-1--00--
---0-1-0-0110-
000--10-00---0
--0----01*-10-
--1--------0--
0--11---010---
------0-------
-010-0----0---

Generation = 3, Population = 277.
-01--1-1101-0-
0--1---1--0100
-0-01-00-0--0-
0-0-010-0----0
-0-0-0-0-00---
0-0---0-00-0--
-0--10--0-0-0-
0--1-101---0*1
--10*010----0-
-0-0-01-----0-
--1-*-0-1--100
0000--1--000--
0-00-00-0-00--
-0--100-00--0-
-0*--0--.01---
--0-----0**00-
--0-00-0*0----
-----00-0--0--
--0----0-1*00-
-0-0---1.-10-1
0-00---1------
0---0-01----0-
11---00-.-*0--
---0--00-0--00
--0-1--0----.*
--1*100---0000
0-*-1---1---0-
.1---000*110--
-0-00---*-----
*000001-1-1-1-
001-**--1...*1
-0--010-1--000
01-1*01*0-110-
-001-1---10---
-0--**--00----
000-0-010-**1-
1---0-1--1--0-
0--0-0-1**--1-
00*-0--0---1--
-0-**0001-1---
000-0--000----
01-1-----0-0--

Generation = 4, Population = 217.
-1*-0------11-
-0-*-0---0---1
0-0--1--0---11
-----*---00---
0---01----1--0
----00-0------
0---*-0-10--1-
---*-*1----1.*
0-*-.---0-----
0--1--*-0-----
00*-*0------11
-------00111-0
1---0-1-1-----
-10-*-----0--0
0-*0-1--.1----
---00----..-10
-01-1-01.---0-
------1-10-1--
-----0-11*.-1-
---10-0-.---1-
101-----0-0000
--0--0--1-1--0
-*00-111*-*100
00----------1-
-01-*-010011..
01*.--1-001-1-
-0*0*0--*--01-
**-001--.--1--
--0--0--.--10-
.-11-1*-----*-
---0..00-....-
0---1--0-0----
1*0-.-*.-0-*--
-1-----00---0-
--1-..----000-
-11--1----**-0
--0-11*00*---0
------0-.*1-*0
-1.-10--00----
0--..----1----
--1-1---1--0--
--1----0-1--0-

Generation = 5, Population = 283.
0-*0-----01**-
-1-*010---010*
-0--1-00-000*-
--0--*0--1-00-
-0-0-*00--*00-
---01-0--00-00
-0--.-10*10---
---*1*-1-11-*.
1-*0*0-011-0-0
--1---.-11--00
--*0*1-1-11-*-
-00--0-11--*01
--001--0*--0--
0*-0*-0-0--00-
-0.---1-.---0-
000---00-..0-1
01*0*--**0--1-
-00-0-*-----0-
---0---****-*0
00-*10--.11---
*---00011---1-
00--01-----00-
-.11----*-*-1-
110000---0-0*-
01--.---11***.
1-..--*011--*0
01.1.--0*----0
*.--1*0-.-1-0-
1-10----.-1--0
.0----.-----*0
0--1..--1....-
1-0--101-110--
-.11.0*.-1-.--
-*0----11-0010
-0*0..-100-1--
0**0-*-10-..11
--1-**.--.00--
-00--01-..*-*-
--.0*1-011--00
--0**0--1*10--
00*--0---00---
-1*10-0-0-0--0

Generation = 6, Population = 288.
-1*--11-11*..-
-*0.1----01--*
01--*-11--1-.-
-0---.100*-110
0-010.-100.11-
--0-*0-0--10-1
0-0-.--1.-10-0
00-.*.1--*-1*.
--*1.---**0--1
00-1--.0-*----
--.-*--*--*1.1
011001-*---.1*
11-1----.00-00
1*0-*-10100--0
0-.001--.--01-
----00---..---
--.-*00.*10-*-
----1-*0--01--
0--100-**.*-*1
-1-**---.--0-1
.0--1---*-0-*0
-1-----1---110
-.--0--1.0*--0
-*11-10-01--.0
1--0*00---....
-1*.-0*1----.-
1*.-*00-.-0-11
*.00**1-.1*--0
*0*1-00-.1*101
*-----.-1-10*-
1---..0--****1
*-101-1*1--10-
1.***-..-*1.00
0.11-1----11-1
-1.-*.0*-10*0-
1..-0*----..**
10-0...00*-100
01--01*-*.*1*-
-1.-.*01*-0--1
0--..10--.*1-0
11.011--1-1--0
--.-10---1100-

Generation = 7, Population = 253.
0-*0-**-***..0
-.-.*--1--*10.
1*-0.----0*-.-
01-0-.--1.0-*1
-0---.-*1-.*-0
-0-0*1-----10*
1010*0-**--111
-10...---.--.*
-0.-*-1-..1---
111*--.11.00--
--.0.-0*1-**.*
-*-11*-.11-.-.
**-*101-.----1
*.1-.0*--1--01
1-*1---0*1-1*-
0---11--0**0--
--.0.1-.*--0.0
0-----.-1-1*00
--0--10****-.-
-*-..--1*-1---
*-1-*0--.---.1
0*0---0*-01**1
-*1----*.-*---
-*-----01---.1
-11-.-1-11....
1-*.11.*1-1-.0
-..-.-1-.-1-*-
..-1..*0.-.-0-
*-.-0--0*-.*1-
*-11-1*1--*-.0
-011.*1-1....*
*--1---**11-10
-....-**-*-.--
1.-----1-1*--*
0-*-..1.-*1.-0
*.*--*--0-....
*---...11*0---
-*0-1*.-...*.0
0*.-..--*--1-*
10-..*---.**--
-*.1**-0-0-0-1
01.---0--**-1-

Generation = 8, Population = 263.
--.10**1***.*-
-.0.*----0.-1.
-*-1*--1-1.-.1
-*-10.--*.11*-
--0-0.0*-0*.--
--0-.-0---1*1.
*-*1.--..11-**
-*-...111.11.*
--.-.---.**--1
**-*--.--.1-00
0-.-.-1.*1.**.
-*-**.1.-*-.-.
*.0.*--0*----*
*.*0.-.--*0---
--**---1.*1-.-
1000*-0-1..1-1
--.-.*0**-0-.1
-000--.--0-.--
0--10*-....-*1
-*0**---.1*0-1
*-*-.1--.0-0.*
-.100-1*-1***-
-.-1---..-*-1-
1.1-------0-.-
---0.---**....
-1****..-1*0.-
1..1*-*0*0*-*-
..0-.**-*-.--0
.0*1--01*1.*--
*0--0-.-10.-.1
11**.*--*.**.*
.--*111..**-*-
-....0*.0.1*0-
**1---0*-*.11.
--.0..-*-.-.01
*..00.--10....
*---******1--0
0.1-*..1...*.1
-..-**-1.1---.
-10..*001*.*0-
1..***0--1-10-
1-*11---0**0--

Generation = 9, Population = 251.
--.*1**-****.0
-.-..-0---.1**
1*0-.11-0*.0.-
0*0-1.10..--*-
--111.-*11..--
00--.11--0*.-*
.0**.--.***-.*
-*-...*-*.**.*
1-*1.-10*..---
**-.0-.-1.*0--
10.-*1***-.***
0*1**.*.1*1.1.
*.1.*0-1*00-0.
...-*-.--.-0-1
--..----..--.0
*-11*11-*..--*
0-.-.*1.*1--**
-1----.0---.0-
-00*1*0..*.-*-
0.1..0--.-.-1-
.0.0.--1.---.*
0*-111*.--...-
1*1*--1..-.1*0
-.-1----1-10.-
1111.0-1*..*..
-*...**.1*.1.-
-..-.-.-.1.0*-
..11...-.1.1--
*-.*----.-*.1-
.111--*-*-.-.*
-*....-0*..*.*
.0-*---.*..-.-
1***.-..-.-.10
.**----.1*.-*.
-1.1*.-*-*-*-*
...--.01--*.**
*01-..*...*-01
1*--...-....**
0.*0*.0-.*0-0.
-*1...11-*.*-0
*.....--1-1*-1
*-**--001*.---

Generation = 10, Population = 250.
--..-**-.***.1
0*0*.1-1--.*.*
-.-1.**11.*1.1
-.11*.--..--.1
-0---.0.--*.10
1-0-.**-01..1.
.1...0-.*..-.*
-.0...*1..***.
*-**.0--*..--1
..-.1-.1-.*--0
*1.-.-*..-...*
1.*.....*.-.-.
*.*..11*.1-01*
...0*-.01*--0*
1-..-11-..-1.-
.-*-**--**.--*
1-*0..-.**00**
-*-01-.----*--
--1*-*1....0*1
-.*..1-1.1.0*-
.1.1.---.---..
-.1*--**--...-
-.-.--**.-*-*1
-.1-010-*-*1.1
**--.11*...**.
-*..***.-*.-.-
-.*1.0.-.-.1*1
..*-...-.*.*0-
.-..0-0-.-**--
*---01.1*0.0.*
1*.*..-1**..*.
.-1*1--**..1.-
*..*.-..-*-.-1
...10--.***-..
0*.*..-*0*1*-*
*..00*--1-*...
*1*0..**...-1*
*.10.*.-.**...
1..-.*1-**111.
1.-..*-*1...01
*..*..-0*-**-*
.-..101-***0-0

*** Life<Cell> 40x11 ***

Generation = 0, Population = 95.
-------0---
0--------0-
--0----0---
-0----0----
--0---0---0
---00------
0----0-0--0
------0----
--0---0----
0-0--------
---0-------
0----------
00---0-----
0---00---0-
-----------
----000----
--00----0--
----0--0---
0----0---00
-----0-00--
-0----0-0--
----000-0--
0----------
--0-0--0-0-
---0----0--
0----------
--00--0---0
0---0----0-
-0-0-----0-
---------0-
-0--0-0----
---0--0----
----------0
--0-0------
-00----00--
0--00------
----0-----0
00-------0-
-----0---0-
----0--0---

Generation = 3, Population = 238.
0-100--00-0
--*000--0-0
-01-1-1-0-1
*0--0-1-1--
00100*--00-
00--11*-00-
1-1--101**0
*--10--0--0
--1*0-1*---
1-*0-0*-0-0
--10--10-0-
*0--1*-00-0
.-*-0-0-00-
-00*.-000--
--11---01--
1--1.1*---0
--1---*-0-0
00---1-11--
1*-00--0--*
0001-1-111-
--01-**0-*0
00--11--1-1
1-*-0--00-0
-0-0-0-1-10
*-11--0-00-
-000--0--00
-0--0--0111
0-0-00*-0.0
00-0-1--00-
--0**0--0.0
---010*0--1
0-*00-1---0
-----0*1---
00*-00-0-0-
-10-0--11-1
0--11-1-0-0
0-0---11--1
----0000-1-
0001--00-1-
1-10---10-0

Generation = 6, Population = 206.
-0-*10-.-*1
0-.1-.11---
*1--1*.10*.
..*0-0.0*1-
*0100*-*-1*
*-0-*-*-..0
1***0-1*..1
.-.-10.00-1
-*1.0.1*--1
--.*-..---0
--*-0-*0-00
*-*-*.-011-
*..*...-1.1
*--*.*0*---
*--.-0-0-0-
---....010.
--*11*.**-.
----0*--*10
.**01..--1.
01*.0.-.1*-
--1-.*.0-.-
-1011---.--
*-.-.0-10*1
---**1-.11-
*1-.01.-..*
--*01*.--.1
-*1*11-...*
-10*1*.--.-
1--.-100.-.
*-...*-1..*
-0*-1...-.-
1-**0*-*1*-
-*10.1.10-0
1*.---00-10
----10-1-*.
10*.--*--0-
.---*-.11-.
-1--11-.-.-
1---00-1*.*
**-1----101

Generation = 9, Population = 189.
1--**11.0..
--.*0**--0*
*.--.*..-**
...---.1**0
*--...*.1-.
.--*...-.*-
-*.*-**...-
*-***1.1101
*.*.-.*.-0-
*-*.0..1--0
*-*****-*11
*-.0.*-0*-0
*......-..-
*.-...1.-0-
*--.--*-1.0
-1..*.**.1*
0*.-..**.-.
-*1-*.1*..1
*.*-**.---*
*...1*-...*
-*--*..0-.0
0**1*.-*..-
.1.*.-*...*
-00****.-*0
..1*...1.**
00*-1.*-**1
-.*.1.-*...
-**.*..--.-
.10.0.-0*1.
.0....1.**.
1-.1....-.*
--*.1.1...*
*..0....11-
...0-0-1*11
0--1.--.*.*
.-..-1.*--*
.1-0*-...-.
1-1-.1-.1.0
*----1-....
***110**--*

*** Life<Cell> 43x14 ***

Generation = 0, Population = 83.
---0----000---
0----00-----00
------0-----0-
--------------
----------0-00
----0-----0---
--------------
---0----------
000-0-0----0-0
0---00--------
-0---0-0-----0
---------0----
--------------
---0------0---
0----------0--
----0---------
------------0-
-0--0---------
------0--0----
---0----------
-0------------
----0--0----0-
--0----0------
0----0-0----0-
-------------0
---------0-0-0
---0----0-0---
--0----0-----0
--------------
-0------------
-------------0
--------------
-0-0----------
----------0---
---------0----
--0-------0---
-------------0
0-0-----------
-0----------0-
------0----0--
--0-----------
-0-----0------
----0--0------

Generation = 2, Population = 238.
-0-0-1-1-0-1--
0-011--11-11-*
---00----00-*0
0---001---1-01
------0-0-*0-*
--01--0-0---1-
000-1-0---100-
11--------0---
-0-1-10100-0-0
*-----01-0----
001-0*00-1----
0--001-1--10--
00---0-0---0-0
-0--10--01--0-
0-0------0--10
-0010-0---0---
0-----0--001--
--1-0-1-------
-1--1--11--00-
-----0-0----0-
--11--01-0----
0-11--1*-00-0-
11--11---0---0
0-1010----0100
--00---10-01-*
0-0--0-0-0--0*
-0---00-0-0-00
01--00--------
---0----0-0--1
--10---0-----1
-1-0-------0-0
-1--------0---
-0-0-0---0---0
--0-----0-0-0-
-0-0---0---0-0
--0-0---0-0-0-
-0-------0-010
----0-0---00--
--00------0--1
011-0--100---0
00-----1----0-
---0-01--0-0--
----011*-0----

Generation = 4, Population = 228.
----11-*--**1-
01---11-.--1-.
--00-----*--.-
---0------1--*
10111----0.*1*
1--.0---*-1-.0
-*---0*1----01
-*-----1-0----
-*--1.*.00-00-
.111-1-.10----
*-.10.*--.-1--
---**.----.--1
001-1-0----*10
1*--.010------
-0*-011--*----
1--1----01----
-0------1--.1-
10-0*0*01-1-1-
1---*0-1.-1*-1
0---00------*-
-1---0-*----00
*1-10-1*0*--00
..-----11*11--
-1--*--*10-*0*
-1-------1-1-.
-1--1*---0-0-.
--0-0-*-----0-
---0-000-0--1-
-1-*---------*
-0.--0---011-1
-.-*----0-00--
-------0--0--0
-*---0-0-----0
010---0-------
-0---0------0-
0-----0----0--
-000-----0-0*-
011-0-01--0---
-0--10-110--1*
-.-----1-----*
0---1-0*-----0
1-10-0-*---0--
0000-***0--10-

Generation = 6, Population = 290.
----*-1**1.**1
*.1*1-*1.11.-*
--*0*----*11.*
----0-1---1-0*
--1*1---1-*.-.
*1-.--1-*---.0
0.101-.-01*1*-
-.--1--.--*1-1
1.---...-*--*-
*--1--*.1-10-0
.0..0..*1*1---
01-..*010-.--*
0-.-*-*-0--*1-
1.-0.--*---1-1
-0*--*---.---1
1*1111*10--01-
1*101--0-1*..1
10--.-.*--.1.-
1---.*1.*11.01
*--10*1000--*-
1.--1--.0-01*-
.1-.*1..-.-0--
..0---0.1.11-1
*.*-.--..-1.0.
--*00-0*1-01-.
-*111*0-1*---.
0-01-1.00000-1
-*----*-00-1.0
-.0.-01-0-1-0*
--*1-01-0-.--*
0.-.--0001*-11
0*0---1-0-*-1-
-*-0---*101-1*
*-*1--000-00-1
--00-0---00001
0-1----1011--0
10-*-0--1-10.-
*--1-1-1-1-00-
0--*1*1*---1.*
1.100-0--*0-0.
-110-1-*1----*
-1101*-.------
---0-**.---1*-

Generation = 8, Population = 272.
-0--.11..1..*-
..1.*1*-*.1*-*
11.-.-1--*1*.*
-00-0-111011*.
*0.*-1--.0*.-.
*.1.1-10*011.0
*..0--.-01**.-
1.-0.-0.1-.---
*.1*-...0.--.-
*1*---...---1-
.**.0**.-*1-0-
--1.*.**-0.--.
0-.0.-.1---..-
..--.1-*1--.*.
10.1-.101*0-1.
-*-..****--**-
.***1--0-****1
.0-*.*..--.-.0
-1--..1..**.0.
*1-**.*000--.-
*.--1--.*--.*-
.1-....*-.*-01
..-1---.-*-1--
.**1.0-.**1.0.
-1.-0-0.1*0.0.
0.--..--**---.
-10--*.*0-001.
1*1--*.-*-0*.-
-.-.10.0--1-**
-*..-0*10-*11*
*.0*0----1.011
-*-0-1*1--*01*
-*---0-.-0*1-.
**..---*-0*0--
-*-00--01-0*-.
--.-0--.-.*---
.*-.0*--.---.*
*-*1*1*.1-1**0
0--*....--1..*
..-00-**-.*--.
-----**..0100*
-1*01.1.-10---
--1*-***111*.1

Generation = 10, Population = 271.
10-1*-1..1.**-
**-***.-**1.-*
*-*-.0-01.-*.*
1--10---101***
*-*.-110.-..-*
*.1.11*0*---.-
.*.*-1*-**...*
-*00.1-.--*--1
**1**.*.*.--.0
**.--*...-*-.-
*..*-.**-..1*-
11.**..*1*.-1*
0**0*1*1110..-
*.-0*1-.---**.
*0.-*.1--.*--.
-.1..**..-*..0
**.*.10*-..*.1
*0-.....1-.-.-
-110..*..**.-.
.1-**.*----0.-
.*1-*--*.--.*-
.--...*.1*.--*
.*1*-*0.-.1---
**.1.-0...-*-.
0**-01-*..0.*.
0*--..--..1-0.
11--*...*1--*.
*.-*-..*.--*.1
1.*..-.*---0*.
0...-0.**-..1.
*.*.-1----.*1*
-.--1-..11*0.*
-.1*---.*-**1*
*...--*.1-.--1
-*1-0--0.1-.1*
-0*-000*-..--*
*.1.-*0-.0-1.*
.-.***..111..-
--0.....-*1..*
*.*---*.1..01*
---1-.*.*-10-*
**.*..1*-.**10
00-*-**.-*..*-

*** Life<Cell> 42x17 ***

Generation = 0, Population = 80.
-------------0---
----------0------
0-----0----------
---0--------0--0-
----0-0---0------
---0-0-----------
--0-0000--0------
-----------------
-----0-----------
-0--0-0----------
----------00-----
-------0---------
-----------------
-----------0-----
--0--0---00------
---------0-----0-
------0----------
---0-------0-----
-----------------
-----------------
--------0--------
--0------------0-
--0---0-------0--
---------0-------
------0----------
----0----0-------
------------0---0
--------0---0----
0-----0---0------
-0------------0--
---------0-------
-0---0--------0-0
0-0-0-----------0
------0----------
-------0---------
-00------------0-
--------00-------
0-0--------------
------00---0-0---
-----------------
0-------------0--
-----0-----0-----

Generation = 9, Population = 303.
--10--*--.1.--010
-11---1-.1*1-**.*
----.*.-**--..1*-
0-----*.1*--0-.*.
1-.--1-..-*-...0.
0101*.-.-.1--11-0
.0....1**..*-*0-*
1-1.*1..0.--1101-
0.10--***.-*.--1-
1...11-.10-.01--0
1*.-**--0...**.--
-1--.-*0-.-.-0-*-
0*-*-.0--.-..--*0
*.-..1-..----.-00
..1....-....-**..
1*.*1.--*-1.0*0-0
-.10--*1.-*-*.---
011--.10-**0-0---
10-0--101.*0*0---
---.*0.*1.*-10---
-1.-.*-00.-0--00-
*0..1-*---11.-100
**.-1-.*-10-.01-0
-1.1*.*..*0--.01-
*1*-*.*-*00*10-0*
1**0--.*..0*1...0
*-.0-1-1.*--*-100
*--1**.-...-.1-*-
-00010*-1*.*-.*--
1--*...-0.1-10---
-1-----1*-....1-*
---1-*.*.*-.*0*-.
--*-.0---..1--.-.
-..-.-10-1.--0-.*
--.1-1-*.-1-0--.-
*...---1***1-..0*
*-*.----.-10...-1
-1.-.001-11.01.**
.1..1*..**-.-1-1-
*..-0.-----.001.*
.-.*00.*.**.-1*-*
1-.*1-0.0---0---0

*** Life<Cell> 50x15 ***

Generation = 0, Population = 81.
-0--0-0-0--00--
--------------0
-------0---0---
---------------
------0--------
--0------------
---------------
0----0------0--
-------0-------
---------------
------0-----0--
---------------
-0--0----------
---------------
-------0--0---0
---------------
--0------------
----0-0-----0--
0---------0----
---------------
----00---------
----0---------0
0-------0------
-----0--0------
---------0-----
--0------0-----
-0----00-0--0--
---0--0-----0--
-----0-0--0---0
-----------0---
-------00------
-00-0------0---
--------------0
-------0-------
---------0--0--
--0------------
----0----------
---------------
---------0-----
--------0------
-----------0---
---------------
----0-0-------0
---------------
----0-0--0-----
---0-----------
----------0----
0---------0----
-----------0--0
-------00------

*** Life<Cell> 44x12 ***

Generation = 0, Population = 85.
------------
------------
----0-0-----
---00----00-
------------
--------0---
0----0-0-00-
---0----0---
--0---0-0--0
--00--0-----
-----------0
--------0---
---0-0---0--
---0--0--00-
--0----0--0-
-------0-00-
----0-0---0-
-------0--0-
-----0----0-
--0---------
-0---0------
--0-0-0-----
-0---0------
-----------0
----0-------
----------0-
-0---------0
--------00--
----------0-
--0---------
---0-------0
------00----
---0------0-
----------00
------------
0-----0---00
-0-0--------
------------
-----------0
------------
------------
-0--0----000
-----0-000--
-----------0

*** Life<Cell> 44x11 ***

Generation = 0, Population = 58.
0-00-------
-0---------
0----0-----
-----------
-----0---0-
-----------
----------0
-----0-----
-0---------
--0--------
-00--0-----
-0-----00--
-0-------0-
-----------
---------0-
0----00----
-----------
--0--------
--0------0-
-00--0-----
-----------
-----------
-----------
----00-----
----0--0--0
-----------
------0----
---00---0--
----------0
----0---0--
0--0-------
-----------
-----------
-0-------0-
-----------
-0---------
--0--------
----------0
-------00--
-----------
-----------
------0----
-00--0-0---
----0-----0

Generation = 2, Population = 159.
-1-*1------
---1-------
-----0-0-0-
-0---------
0--0-0----1
-----1-----
-0---1--010
--00---0---
-000-1----0
01--01-00--
1---1--1-0-
--00-11--00
-*10-0-1-0-
01---0000--
-0-----0-0-
0--01--10--
--1--------
-1*-0-0----
0---0--0---
1-0-1--0---
--1------0-
-00-0------
----1--0--0
--01--11---
--0--0--110
---0-0--0--
-------11--
-01-*1--0-1
0--1--0-0-0
--000---0-1
011--0----0
-0--0---00-
0--0-------
-0-0---0---
--0--------
-0-0-----00
0---0--00--
-0------1-0
--0--01--11
------0---0
-00--0--0--
--------0-0
1---00-0-0-
--1-0---0--

Generation = 4, Population = 149.
---*.-00-0-
---.-1-----
01-11----01
-----0-----
0-10-*-----
-10--------
100--.1-*--
-------001-
-----.-----
0-----0----
.---*10.--0
10-011.---*
-.*----.-*-
-.---------
-*---------
-00-.*-1*00
-0*------0-
0.*0--0----
*-0--10----
*---.1---1-
----0--1--1
--0--------
--0-.-0--1-
0-0.01*--1-
0--1--0---*
----0---0--
0-11---**-1
0-.-..-00-*
---.1-000-0
00--*---*01
-*1-1-10---
-*-00---*--
--1-------0
-0--1---100
0--1---10--
-0---0-----
0-----1----
-0------.1-
-0011*-*-..
-1--0-----*
--*--------
--1-1-----0
1**1--0-00-
1----------

Generation = 6, Population = 206.
0--..0*-001
--0*-1-1---
-.0*.---1*.
-110---0---
-1--0.-0001
1--00*-010-
.---0.--.-1
111----*-.1
101-0*--1-0
0*10-1---01
.1-0..0*0**
.-1-.-*11-*
-..0-1-.-*0
-.100--011-
-.-00---1--
----**-..--
-0*--1110--
**.*-0-1--0
*0*0----010
***0**0----
--*-0-1-1-1
0-*-*-1----
---1.0*-1.-
---.*-.--.-
-11-*1*1*1.
----0*10-1-
*0..0-1..-*
--.***0--0*
010..0*-*1-
----.1--.-1
-..1-0.*-1-
1*0*-1--.-1
-111--0---*
--0-11-0---
-1-----*-0-
----1--11-1
-1---0--0--
---111--.--
-*--..-.-*.
-.-0*-1-0-.
--.--00010-
-01---1-*--
-...-*00*-0
.---1-----0

*** Life<Cell> 41x15 ***

Generation = 0, Population = 81.
--0---0--------
0--0-----------
------0--------
-0--0----0--0--
-----------0---
----000-0------
---------------
----0--0-------
---0------0----
-------0-------
0---0----0-0---
-----0---0----0
---0-------0-00
----------0---0
------0--------
0-0-0---00-----
---------------
----------0----
-0-------------
--0------0--0-0
0--0-----------
---0--0-----0--
------------0--
--000----------
--0------0-----
-----0---------
0-------0---0--
0--------------
-------0-----0-
----0-0----0---
---0-----------
------0--------
--0--00-----0--
------0--------
--0--0---------
------0---0----
-------0-------
---------0----0
------------0--
---------------
-----0---------

Generation = 2, Population = 204.
1-0-----0------
0-0-10---0--0--
--0-1-0-0--0---
1-1-01-01-10--0
------1--1---0-
-001*---010-0--
---0------00---
--0-0--010-----
00--00--01-10--
----1--0------0
0-----01-*0---1
---1---0--100--
00--110-----0**
0-0-00---------
---01---1--0-01
----0--1--10--0
-0----0--------
0---0---------0
1--------------
1--00-00---1---
0-0--0------0--
-0-*-1--000-*--
0-10-----00---0
0100*-------1--
----1--01--0---
1-1-1--0-------
*-----01-1---10
*-0-000----0---
1--0-0--10-11--
0-0-0---00---1-
-01---00----00-
--------0--0---
0-0--*-10-0---0
----0---0-0----
0-01101-----0--
----0-0--1--0-0
--0------1--0--
------01--101-0
-----0-0--0---1
---------0----0
---0-0-0----0--

Generation = 4, Population = 220.
.-*-------00---
*-00-*001------
------0---0----
10*-0.-*--.--00
--01--10-.1----
-*0..--1*.0-0--
0---1-0--1-*---
10-1*0--.--01-0
---1--11---.-1-
---1.00-0-11--*
0-0-11*.0*---1*
011--1-*1-1-0-1
---0-.---0---..
------00----10-
100-.----10*---
------0-1-.--0-
0----------1-00
---1------0-0--
-1---01-----0--
---*-1*--01-000
----0--1-1--*--
--0*-*-1*--0.11
*0--0---------0
0-**.10111--1-1
---01110.------
*0-0*----1-10--
*100----0----.*
*0-1--0--------
1--0-*0----1.0-
*-*--0100-1--.-
0-1--1-*1---*--
1-0---*--------
000--.1.*0*--10
--0-*-*--0*1--1
00-1--1--1--*--
--0------.1---0
--01--0--.-00--
-----0*---1-10-
--0-----1-----1
------0---0----
-0-----0-1--0--

Generation = 6, Population = 284.
.1*-0-1-11-*10-
.--*1.*-.10--00
--01*-*1---*0--
*-.10.-.-0.0--*
-1**--.--..11--
0.0..0*1*.*--10
*-1-*-000--.1--
1-0-.*--*11-*10
-*1-1*-.-1-.-11
-00..-***-..-1.
---1*-..*.--0..
--110.1*--100-*
-----.-00-0-0..
*11-11**10-0*-*
*-*-.--11*0*0-1
---01--111.--*-
-----01------0*
-1-1-----1-----
*-------010100-
-11.*-*11-*1-0*
1-1-0*-*-.0-.1-
10*.-*--.--0.*1
.*-------1----0
--...1**-*-1-0.
01--*..0*0-----
.0**.-1-0-0.*--
.-0*-01*--01-..
.0----*1-00*01-
1-0-0.--*0-1*-1
.-*--*.*-01--*0
01--1.1*1-11.1-
1-0-0-.0-1-0--1
-0--1*-..*.--.0
--*-.-.---.*-0*
--1-11.1-*1-*1-
1-*--0--0.-001-
--0.-0---*1-00-
--011*.---111--
01010-0*-1101-1
----010---0--0-
-010-0--0-010--

Generation = 8, Population = 256.
.*.---.-.--.--0
.11.*.*-*1-----
11--*-..-0-.*-0
.-..-.1.--.-1*.
-*..-1.*-..1.00
-.-.*-.....01.*
*---*-0--10..1-
**0-.*-1..*-..0
-.*1**-.-.-.-.-
---..0*..0*.-**
---1*-....1-*..
-*..0...-*10*0.
--01-.-*0-*00..
.11-*-.*-00-.1.
*-*-.--.-.-.0**
10-**00-*1.--.-
--000-*-1--11-*
1-0--110-*0---1
**--1---0*-.00-
*.-.*-..--.1*-*
*0110.1.-*-1.11
1-*.-*-*.-0-*.1
*.-1-01-1.10--*
--...*..*.-11-*
-1-1...0.--1--0
*-..*-.-*--..-0
.-0*0--*-----.*
.0-**1.--0*.-.-
-1*10.-1*--1*-.
*-.11...001-0*-
0.*1..*.*-1-.*-
.---00.*-.--10*
00---*-....--.-
0-.-.-.111**10.
**11*-*11*.0..0
-0*1-0-00.-*0.-
-10.00*-0*11*0-
-0-.****-1...1*
---.--0*1*1----
-----*00--0----
-*----------*0-

Generation = 10, Population = 259.
.*.0--.-.--.--0
*....**-*-*-10-
*--*.-..1--.*10
*0..1*-*-1.01..
-*..--**-....-0
-.0.*1*.**.-*..
*-*-*101**-.*-1
*.-1**-1...1**0
*..1..-.0.0.1.1
0--..0...-.*-**
-1*.*1....--.**
-...-..*1.1-.-.
-*0.-.*.--**0**
**.-.*..-*-0..*
*0.1*--.*.-**.*
--0..001...10.1
0----1.-.-0**0.
*-*--..-0.--1-*
*.01.-*0-*-.0*1
..*.**..--*1*1.
.0*10.-.-.-****
-**.-.-..-*0..-
..--0-.1..1-*-*
***.**....0..-*
1111*.*-.-1*01-
.-..*1*1.-1**10
.--**-*.-*--0*.
.--**..-0*..-*-
11.--.-*.-1..-*
*-**1*..*01-0*1
*..-***.*-.*..-
.-1---..-.1-.-*
-*--1.-*...1-.1
-1.-.1.-**.*--.
*....**--*.0..0
1*.1-*10-.-.-.-
-.0.00.-0.1..--
-*-**...--..*-*
--1.*1-.-.-*1--
-1-0-.*--0---11
-*-1--1101--.-1

*** Life<Cell> 49x18 ***

Generation = 0, Population = 76.
-------0----0-----
-----0------------
0-----------------
------------------
-0-0--0--0--------
0-------0--0------
----0------0------
-------0--0-------
0-----------------
0--------0--------
0-------------0---
-----------------0
------------------
-----------------0
------0--0--------
------0-----------
-----0----------0-
------------------
------------0-----
------------0-----
---0--------0-----
-----------0------
---0--0-----------
--00--------------
----0--------0----
-----------0------
------0-----0-----
-------0----------
-------------0----
------------------
--0---------------
------------------
00------0---------
-0---00--------0--
------0--00--0---0
------------------
--0---------------
--0--0---0-----0--
------------------
----00-----0------
-0----------------
0------------0----
-------0----------
------0-----------
----0--------0----
------------------
0-0----0----------
--------------0--0
------------------

Generation = 7, Population = 417.
--01110--.1*-11--0
111----*100--10---
-1--1-*11-01.0-0-0
*---0-0.--.--0----
*.-*0*-1-0.-0.00--
10.---.*----.*0-00
.01.-*-1-001-1-0-*
0--.--.-0--11-.-*-
1*.1-*10----00----
00-0*10-11.-10----
*-.0--*1-.11-----0
*--000-1--.-*10-0-
*--101**0*01--0---
1---0-.00--01-000-
.-*--.-.--.11-*-10
----*---*-.-.1----
*-*---0*---*.1--10
00-1--*0*-*-.101*0
000**0-01..*.1--.-
1*10-1--10-.----.-
-00--**1-010*-1--0
1-.10---10--10----
*1-.1.**0-0-*00--1
...**-1-*-*-10-00-
*--101--.*0.*1-0*-
*0-001100-0--10--*
-0--0*1------0-0-0
*11-*1*-0-0.0*--0-
1-0--0--..-0*-00--
0*----00*1--000---
-.-0-1*--..0*1-0--
-.10-1*1-**-010-0-
.-0-0*0*---1..*--1
-1-0.-0--0-.1.-*0.
1.----.-.--*--110.
-0---*.1-.*-01--0*
1----0.--1*-0--*0*
--.--*---.0-0-0-1*
-1.1-**1-*-0*-0--*
*10.1.---010--000-
-0..1--1--1-0-0---
----1.*---1*--*-0-
*-0.*-0-*1-10.---1
*010.-0-*----*-0--
.*-100.*.-1*0*01-.
-0-001.0-00001--00
10.1.--*--00-----*
-00-1-10--0---.*-.
0-011*0-0-000*-0-0

*** Life<Cell> 50x13 ***

Generation = 0, Population = 84.
-------------
-----0------0
-------------
---------0---
-------------
---0-0-------
------0----0-
--------0-0--
---------0-0-
-----0---0-0-
----0--------
-0-0-0-----00
0---0--0-0---
-----0-----0-
------------0
0----0--0---0
-----0-------
--00--------0
------0------
----------0--
-------------
-----0-------
--0-----0----
-----------00
--------0----
----0-0---0--
--------00---
--0----------
-------------
00---------0-
---0---------
------0------
---0---0---0-
-----00------
-0---------0-
-------0----0
0-0----0-----
---0---------
--0----------
0------000---
--------0----
-------------
----0--------
--0---00---0-
-------------
-----0-----0-
-------------
----0-----0--
-------0-----
------0------

*** Life<Cell> 49x15 ***

Generation = 0, Population = 60.
---0-----------
0---0---0------
---------------
----0----------
----0----------
---0-----0-----
---------------
---------0-----
--0------------
0-0------------
------0----0---
---0---------0-
---------------
----0------0---
----0----------
---------------
-0-------------
---0-0---------
------0--------
-------0---0---
-----0---------
----------0----
-----0--------0
0---0----------
--0-0-0--------
---------------
----0------0-0-
------0-------0
0--------------
-----0---------
---------------
----0-0--------
--0------------
---------0-----
---0-----------
-----0---------
---------------
------------0--
---------------
0--------------
0---0------0---
---------------
--0------------
---------------
--------------0
-----0--------0
--0-0--0-------
---0-----------
---------------

Generation = 5, Population = 333.
--0-*00-00--0--
-01*.0-00-00-0-
0--1.---0---0--
10-..110**0----
*-*1*0-------0-
00*0-*01-0-00-0
--10-0--0-0-00-
---**10----1---
.--0*010-0-1---
**.--0*-0.0-0--
00-0-0-*1----.-
-01-.-010-0-0-0
0*--.0--0----0-
0--*---*-0-0---
-10--0-0100*00-
0001.-0---01--0
0--*-----00--0-
-.0-1-0--1*10-0
01-0.10---*0-0-
-00.1---00--0-0
00--*1*-0-00--0
-0---*-1--0*0--
----*-.0-1-1*10
*01-10----01---
*--1*-*01-1---0
--0-1-.0--10-01
.00---01-1---1*
1-*0.*--00-0--0
0-10--10----0--
0--11-0----0-0-
00111-0-0------
-0.0-1*-.------
0--..-100-0-000
------01---0*10
01.-0.--00--00-
-*-**---0-00---
*0--*00-0-0-0-0
---00--01*00-0-
*0-*-0--00----0
.1.0-1000-----0
.1*-100**0--00*
*---0---0--0--*
---0-0110---0--
-0--0-00--000-*
1----0------.1.
---00--.-*--.1.
--1-1-.-------*
--01--0*---0---
-0-0-0010----0-

Generation = 10, Population = 317.
--*-*..-1*0*-0-
1.....--..*.*--
1.0.*-1-.-*--1-
.*0.*-1-..*10.-
.......*1-.1*-0
-1..-...00-10--
-1..*11-.10-0.-
-.-..1-0--0.---
*0.1.0-*--.**0*
..*1...--*-.0.0
-.*1---.*..1-..
.*.0..*.*--1-*0
-*0*.1-.--1*1*-
*-1.*1-.*.--1-1
.*--*-.-1...*.-
0..**.-.-..--1-
-*..-.1*-*-*0--
1.1..*1*1-.*.--
**--..-.*1**0**
-...**1*0.1..**
*...**.1-0-1.1-
*1*--*-.10-.1-*
***..*..---.*1.
*-*-.**-*---.01
.-***..*.-*.-1.
-0.*...*-*1.*.*
**-*-*.*0*---*.
*-.**...--0.1-.
--**---.-0111-*
-0..-100-00--.*
1**-*.*-1--0--*
.1..-..-..11*-*
1-1..1*-*10*-*1
0*-----1---..*-
*-.-..1-1*----0
-*-..-*----10..
*01-*111-.10-11
1-*-010*1..*1-.
..1*-.0-----00.
....*..**-11*0-
..****-.*----1.
*---*1--0.--*.*
.-100-..----.--
0-*--10---*-1-.
.*0-.--*11-.*..
0--*-.-*0**1*..
-*.1.*.-.10--**
*-0*-1-.--0--*.
*0**-*1**-1.0**

*** Life<Cell> 43x17 ***

Generation = 0, Population = 89.
--------00-------
------------0-0--
0-----0----------
-----------------
----0----0----0--
0------00-0------
-------0---------
------0------0---
--0--------------
---------0---0---
0-0-----0--------
----------0------
0------0---0--0--
-------0---------
-0---00----------
---------0-00----
------------0-0--
0-----0----------
----0--0---------
--0--------------
-0---------------
---0----------0-0
-----0---------0-
--------------0--
--0---0---------0
------0----------
-0-----0----0----
0---0-----------0
-----------------
-----0--0-0---0--
-0------------0--
0----------------
----0-------000--
0--------0--0----
----00----------0
------------0----
0----------------
-----------------
---0------0----00
-----0-----------
----0---0--0--0--
-----0---0---0---
-----------------

Generation = 3, Population = 369.
-0----0****1--0-0
--0----00-10--1--
1--0---00----0-00
-0----011--01-*00
--10-0-0-0011-00-
1--0-100.-10-1--0
-01---010--000---
-0-0--0101-1--0-0
00--10-11--0-----
0-0--0-1-0*-0-0-0
-0-0---*---1-0---
00--0-0-**------0
0-0----1*-0-*-00-
00-------01*1---0
*0-0--10--0*--0--
1-----*--11.-*-00
0-00--*1-01-.01--
-000*0--1-01*0--0
-1*-0*-0-10-1-100
-0----1--0--0010-
-0--1-0-0---0----
0--0-*-----0---00
0-1-0--10---0--0-
0--10-*00--0101--
-*000-1*-0-01-*--
1-00--1-1-0-00-0-
-0*1--1001-0-01--
-0000*---0100--01
0--000-10--0---00
--0---**1--000--0
------00-0---**--
--1-01-01--0*01-0
011-1*1-0-1*101-0
0----00100-*.0--0
*---.-*-00--1100-
-0---00001--10--0
1-1---0---10----0
-0000-0---0-1--00
110-**00-00*1-01.
00-*01---1000-000
-01*0--00100*--*0
---10-0-00-000-10
-------0-00-00---

Generation = 6, Population = 331.
--00-****..*-0-10
*-0--1--.--1*1.-0
-----101*--1----0
*-101-1--0--*-.--
--*----0*1*1*0-10
*1----1..--.0.10-
--.01-*10-1.-1--0
---0100--.-------
1011.--.*0--11---
.--0-.0-*.*0-010-
--*11*0*----*--00
---1-101*.--00001
1---*-1*.1.*.----
-1--1----.-.1-0-1
.-1-.1---*-.---11
*--10-****..*.-.*
**0-00..-0.-*-.-0
00-..0-*--.1*0-11
-..-1.*1-1--10--0
---*10*-0100-0.-1
-.-**--0-11------
1--00*101--10-*-*
00*-.0-*-0-*----0
.-*1.1.0--*---1--
-.101-..11*-*-*-1
-11-0011.1--1---.
0-.*-11-1*--0-*01
-1*-**--*-1-*----
1-*01---------*0*
---111..1----1--*
----*1111----*.-1
00.-------00*1*--
1---1.----...-1-0
--0-010----*.1--*
.1--.*.1-1-1--0.*
*-110111----*1--*
--.-*101*-*.-0101
-11000-1100-.011-
--0-.**.1--*.01.*
11-.-1-00*-1.1011
---.-11..---.00.1
-0-----1-1-1---*-
-11*-1-101.*---0-

Generation = 9, Population = 323.
.-1-1**...*.-**.1
.01-0*--.1-..-.11
--001-1-.-1.0-*-.
.0*0*0..-10-.-.-1
10*-0-***..-**0-.
..-.*...*.-*1.*0*
--*-*-.*1-**--100
*0-1.1-10.----0--
*11..01..*-1.--0-
*--0-..1*...01-00
0-.1-*1*--.1.*-11
0-0.-*--.*-100-1*
-1--.--..-**.1111
11-..*---*-.111*.
.0*-.----*-.--1.*
.0-.-*.*......-**
..-*11.*--.-.1.--
--0*..0*--.**11**
0*.1...1*.0---.*0
-1*.*-.0.**-*..**
-....*1.-*-01----
**--1.--.-0-.-.1*
--*1.--.*-*.-10-.
.0*-*..--*.-*0.0-
1...--*..*.-.-.-*
**--1...**-*---**
-0..-.--1.1.--.0*
-..1..10*-1-.0--1
*-...*1*-1--*0.0.
*----1...-*-0*-0.
-0-0.*1***.*-*.0*
-..-----1*.1*..0-
.-.0**10-*..*-.1*
---00*1-1--..110*
*10.**..-1-.111.*
.-.111*.1-00.1-1.
1-.0*-*1.0.**1..*
***-..--1---*-*1-
.111....1*-..*..*
..0.--0.-.0..*0-.
-1-*.1***1-0.--..
-*010--*-.0***-.-
*--.--0--****1..*

*** Life<Cell> 50x19 ***

Generation = 0, Population = 85.
-0-----------------
-----------00------
-0---------------00
---00--------0-----
---0----0-----0----
---------0---------
--------0----------
----0--------------
-------------------
-0-----------------
----0--0-----------
----00----------0--
-0------0---------0
--0----------------
---------00------0-
---------------0---
-------------0--0--
----------0-------0
0-------0---------0
-----0------------0
--------------0----
-------------------
-0-0-------------00
----------0---0---0
-------------------
-----------0-------
-------------------
---0------0------0-
-----0-----0------0
----0----0---------
----------0--------
---0---------------
--------0----------
---0---------------
---0--0------0-----
0--------00--------
---0----0----0-----
---0---0-----------
-------0---------0-
----------0--------
--0----------------
-0-----------------
-------------------
-0-----------------
----0--------0---0-
--0-----0----------
-------------------
------------0------
-------0-----------
------00-----------

*** Life<Cell> 44x18 ***

Generation = 0, Population = 81.
------0-----------
--------------0-0-
------------0---0-
------0-----0-0---
----0------------0
---0-0------------
-0---0-0-00-----0-
---0-----0-0------
------------------
------0-----------
---0-----0--00----
-0---------0------
------00----------
-------------0----
---------00--0-0--
------------------
--0---------------
--0-0--------0----
----------------0-
-------0---------0
---------------0--
----------------0-
-----0-00---------
----0---00--------
----0-0--0-0------
--0------------0--
--------------0---
--------------0-0-
------------------
------00----------
-----------------0
------------------
-0----------0-----
-0--------------0-
------------------
0--0--------------
---------------0--
--00--------------
0-0-------------0-
-----0------------
-----------0----0-
---0--------0-----
------------------
-----0-0----------

*** Life<Cell> 41x13 ***

Generation = 0, Population = 64.
-------------
---00------0-
-0-----0---00
0----0-------
-------------
----0---0---0
--0----0----0
------------0
0------0----0
-------------
------------0
-------------
-------------
0--------0-00
--0---0------
---0--0------
-------------
--0-00---0---
--0-----0----
-------------
-------------
-------0---0-
-------0-----
---0-------0-
--0-----0---0
-0--------0--
--------0----
--0----------
--0----------
0-0------00-0
-0-----------
---------0---
-00----------
-----------0-
-------------
-------------
--------0----
-------0-00--
-------------
-----00------
-0-----------

Generation = 6, Population = 253.
0.1----01--*.
.*..*1---01--
01*-111-1---.
0-.100-.1----
.-----1--11--
--..0.-0-----
**-.--*011---
*-1-1100-00-1
--*000--1-*0*
---0-110*.0.*
*-01-11011010
*0---1.11-11*
--1--0-*-----
--11-01*..-.*
--1--1.0.-1--
-1.110----.-1
1------0*-101
.-.**--*.101*
*-*--0--000--
1-*--*1-1-1-1
--*01111*0-0-
1*---.-*-.*01
-0------*--.-
---0---*-0-.-
-11001..-1.-.
1.01-***-.0*.
1.-0101*--*00
01.-11.-0-11*
..-1-0*-*..1.
*-.0*1-1...*.
0*1--01-*0*1-
*0.1-0-0-*.--
*...-1*0-10--
*1.-0-1---1-*
-.10011-0---1
011-0**-1.---
0-0-0-1---*1*
--001**1**1.*
-*01----0-10-
1-.-.*.--*.--
----1-011----
