*** Life<Cell> 20x20 ***

Generation = 0, Population = 114.
--------0--000-0----
0-000-0---------0---
0-----0--00---------
-0-0-0---0-0---00--0
0-----0-00---0----0-
00-00-00--000-00-0--
-0-------0---00--00-
------------0--0---0
-0-0--000--0---000-0
00----0----00----0--
0----0---0----------
-0-0-0-00-0------00-
---0--0-----0-------
0---0--------0--00--
--00------0----00---
--00-----0---00--0--
000-----0---------0-
-0---0--0------0----
--00--0--0---------0
0--------0----0-0---

Generation = 3, Population = 202.
-0-0--0010-11*-----0
1----0*0--0----110-1
-0*0-0.-0--00---0--0
---00-0-0-*----..*-1
-*--*0--.0-0011-*--0
1001*-1---.1.--.-.--
-*00-000010-*.0*-1.0
-00------000---*---.
1----*1-*0-1--01-1-1
11----11---0**10-.*-
**1*010*-00-*0----01
---1110..*-*0-0-011*
-**.--00*10--011*0--
-**00-*-11-1-100010-
0----1-0-000-11-0*0-
-----0-11--0**11-1-1
11-1100-----000*-00*
--*---1-1---------0-
0-.-010--1-1---0-1*1
0*-001---.--100-0-1-

Generation = 6, Population = 179.
-1----1--.1***0*--0*
*--01-.-.--11-*...1*
*-*--*.-.-.11*--*0*1
0-11--11-*.---*...1*
1.--..1-*0----*-.0*.
*-...1*1-1*..0-.0*--
1.-0---01.01..-*--.0
1-1-0-01-.1-1--.011.
*1--1.-0.-.----.--0-
*11*--.1-10-*..-0..0
*.-.**-.---1.-*--0.*
-1--*.-*..-*0-1*1*..
-..*-1*-*1*0-11..-*-
1..0*-.1*.-.-.1.1*0*
00*--.-.0----..11.--
--1--1*-.101**-1--0*
.***-.00----01..00.*
01.---**101*-0-0-*-0
1-.-0*-1-1-*-*-0*..*
0****-0--.01.-.---.-

Generation = 9, Population = 184.
****.-11*.********-*
*--..-.0*-1**1***...
.-.-1**-*1.-..--.-..
10-.---*1..-10...*..
-.*1**1-.*1--*.-.-.*
.*..**.*1-**.-1*-*0*
-.-1--*...-*..*.*-*-
*-**1--.**.--01.**-.
**-0..--*-*----.-11-
.*-.--..0*.-***01.*1
.**...0.0--*.-.**...
--01******0*--.*-...
..**-*.1.-.00...**.-
.**-.1****1.-..*1.*.
-0.0**.**-0-0.*--*00
-*-0-.*-..-1.*-*--**
....*.*1--1*1..*-0.*
1-.1-1..1*1.--1*-.01
**.1-.-.-*0.-*0-.**.
-.***.1--*1-.*..--.-

Generation = 12, Population = 141.
.....-**.*.......*1.
.-1..-.-..-..******.
.-.1***-.*.-.*-1*0*.
.-1**0-*1*.*.0.*....
.*.-.*.1..---.*-.-..
*..*.**.*..**--..*-*
-*0*-***..1..*...-.1
.0***-***..0-.-..*1.
..*-..-*.1..-11.**1-
..*.0-..1..-...*1...
......-.0***.*......
-1*.*.....1.*-..1..*
....-*.-.-.1-..*...*
...0.....*-*-...**.*
*0.0.*...0*--..*-.0-
-*--1..1..*....*-**.
.....***--1..*..-1..
.*..--..*.*.-1-...1*
.**-1.-.0.-.-.01....
-..***---.-*****1-.-

Generation = 15, Population = 146.
.....*****...*....1.
.01**-.-********.*..
.*****.-.***.*1*.-*.
.-..*..*1...*.**.**.
.*.-*..*.*--*..-*-..
*......*...**-*.*.-.
-*1**.....1.*..*.-..
.-...0.*...01.-*..-*
...1*.****........-*
..**--*....0..**-...
*....*1.1.**.*......
*..**......**1..-*..
....-..-.*..-....**.
.......*.*-**....*..
.-.**..**-.11...1.*0
1.*11....**.*...0.**
.*.*....-0-***..****
..**0-...**.-*1.....
..*...1.....*.0-....
0......-....**.***.-

Generation = 18, Population = 137.
..****..........*.-.
.0*..-.1........*..*
......***.....-.*..*
.-..**..**.**...*.*.
...-*.**.**0*.*0*-..
..*.....**..*-*...1.
1*1.......-..**..*..
*-...-*..*.--*-.....
.****..*.......**.*.
...*0*..**.-.**.1*..
..**.*1.-.**.***....
..**...*....*-**1...
....-..1.*.*-..*****
....*.***.-*.....***
.0**....*-*-**.....-
-.*--....**.**..1.*.
....**..11-*..***.*.
...*..........-*.**.
***...-..**.*.*1.*..
-......-...*.*.*...-

*** Life<Cell> 30x30 ***

Generation = 0, Population = 180.
0-000----0-----0-----------0--
----0--------0---00-----------
---------0-------0--000---0---
--0--------------------0--0--0
--0------00--------0---00---0-
0-------0-0---0---0-----0----0
-----------000---0---0-----0--
-00------0----0---000---0-00-0
--0---------0-----------0-----
0--0----0---0---------------00
0--0-0----0----0--0---00------
---------0-0--000------0--0--0
0---000-----------------------
-------0---0----0----0----0---
--------00-------0------------
---0----0-0--00-0-----0---0---
-0-0------0000-0-----0----0---
-0---0---0--0-----0------0----
----0------0----0------0-0--0-
----0--0-----0------0-0-------
-0----0----------------0----00
-00--000----0---------0-----0-
-----0-------------0---0------
00-0--------------0------00--0
0----------0-0----------0--00-
00-----0-----0---------00-----
-----0--0-------0------0------
---00-0-0-------0---00--------
-000-----------------0----0---
----------------0--0--000----0

Generation = 4, Population = 401.
-0**0***1-1*-1---0--00*-1-.-0*
--1-*----00---------*0--0-.--*
0-1*.1---1-011-01-*..1*1001.--
001---0--1*---*--.0-1---0**.-1
.--101---.--1*1----01--1--.---
0-.11-0-0..--1---0--0-*-*0-0-*
0--0-0-11-1.-..-010*0----*--*0
1*0---1--1..-1----1-.---*-*-01
--*-*0--000..---1--01--.1-*---
.-01------1.1-0*--1--1--.1*0*.
-1-.--101---101---1--1*---1---
-01.110110-000*-1*-1----..-.-0
1-0-.-.*0*-0-01.-----1-.1-1---
11--0101*.**0--1-00-1-.-----**
*--1----1--00*-00-0--.0--0*-0-
---1--*.*-*--1.100-----0-1.0-1
1*0*..0--0*1.-1**--0--00-0*-10
-*0*-01-*0-.*00-----------*-01
0----1-0-*--*--1-1--10-10.-1**
-0-0-.---101-00--0----0-*10---
0-1*-0------1--0---0-0---1*1**
--1*--111-*111--1------1-00-10
*---01-*01-0---0---0---**1-00-
1.-*11*-1----.1-*-----*--1-1-0
-0-11-01-0---.-0-1--11--*-1-*-
-.-00-11-0-11---10--0-.11--1-*
-*---1--*0------1---1--1---0--
-0*-..--*0*----0.-111-11--1---
-.10*0101--0-1--*0-*-*0-10100-
11-10-00*---01-10.1000--**1-0-

Generation = 8, Population = 389.
--....*.*-**1-1-1*-00-*-**.*-.
--1-.-.----1--01*1.*.--00-*0-*
-0.***--1***..1..-...-.-*--.--
-01.10-..1*---.-0*1..*-.0.**--
*--.1..--.10..11---.*.-***.---
*...*--0***01.-01--10-.-.0--.*
--1-0--*-1-.-..*1.-*-..11.**.*
*.1-.1*0-*..---1-*.-.*-..-*-1-
-*.*..0-*--**1*-10**.--..-.--0
**-.-*1.-0.*..-.--.-..11*.*-.*
*.1.*0..10--...1.*.-....-.*--.
-**..***-100.1*1....1-0-..0.-1
.-.-.1..0*0**0-.--*.0*-**-*-1-
*.*-*1***...0--*-.0-*-**0-0-..
.-*.1.--*1-0..1*0-...*0-****.-
--0*.-...*..**..0-011--*1-.-1*
.**...*1-0*.**1**0-1-*.010*-.*
1.*.0*-..-0..---01---0*.0-.11*
01.**..-1.1-.-11*..0.-1.0*1*..
----*.--1*0.-..1---.---1.*0*00
0.1.*0*1.-0..--00.--*--1-...*.
--*...****....-..1-0-1-.-*-0**
*.1*---.0..*0.1-.00-.-***.1---
..-.-..-.*--*.**.0*110*0-.*.*-
-*-*.-.1-*-11.01**1-**0-**--.-
0.1*-.1.---.*.----.0--*11-0.1*
-.-1**01..01-1**.0*-*.--*-1.-*
00*-...0.-*1-000.-..-1.-00.-1-
-.-1.0*.*-00-*--*1-.-.*.1*----
.*.1--0-*-*-.--*-..*--*1.*.*1-

Generation = 12, Population = 337.
**.......1**...*-*01**.0..*.*.
-0-0.1*-*-1--1*1.*...-.-10*1-*
**.*...-**......*1...-.-.11*--
--.**-...-..-.*--.....1.-*..11
.-..*..**.*-*...0--...1*..*.-1
*....**-.*.*.*111..10**1.**1..
-0.-*0*.*--..**.*..*****......
*.*-..*-**.*1*1*-..1***....1*-
1*....0*.-1..-.0.-..**-*.-*--.
..-.0*1...**..-..1.1*..-...**.
....****..-0...*.*.1*...-.*0-.
-*.**...1.1*.*.*.*...01-.*0.--
*..-*-..-*...0*.0-..-.1*.0.01-
*..*....***.*-*.-*1-.*..1.--..
*-.*..*-.-1-..**0*....0-....**
01...-........**-1**.0-.*..-**
........1-*.*.*..1..1..---.-..
....0.*...0**.*1...0*-**--.--.
-.***..-..-..0.....-.***0.....
01*...0-..-*-*.-*--*.--****...
0*.**0.1*-**.**-*.-*.1..-..**.
-**.**.***..*.....**---.-.-**.
*.-.--*.-...0*.-.*-1.-....*--*
..-*1.*-......*.*.*1***-*....1
1*-*.-*1-.-.**-...-*......*1.1
0...-.*.**..*.-0.0*-*-.-.*-*..
1*-...--..0-0-*.*-*-*.-*.-***.
.-*-...*....01.*.*...-...**-*0
.*-*.-..*0.0-.-...-.-......-1-
....1-*....-.**.***...***...*1

Generation = 16, Population = 293.
**...**...*...*.-*0-...-*.***.
-*1-.**-.-.*...*.**.*.**.-***.
***.*..1.***.....1.*.-....*.1-
1*...-...1**1*.--.**....1....-
..*...**..**.*.**.1.*.*.....0.
*.**..**.....**-*.*-****......
*-*1*....*-...*..*..*..*...**.
*..**..-*.......0..*.......**-
-**....**...*1.*......-....*1.
.*1.-..**......*..*-...*......
....***.*..0*.*....-....-*.-**
-**.**..1.....**......1***-*.*
**.-....1....-..--....-..*.-*-
...**.....*..-..1..-....-**.*.
**.*...1*-......1*....--....*.
0**..-.*..****..*.*..-*.*.....
.*..*...-.*.**.....**..-...-*.
..**-*..**-.....*..**-..1-.*-.
-*...*.-..-.*...***-*...-**...
0..**.--..-.-*..*--*.--....**.
-....-.-.-.*.*.-..***.*..*..**
*...*...*.******..*.--..*.*..*
....*..****.-..-..-1**.****--.
.****..-...*......*1...-.....*
*.1.*-..-.0***0*..***.*....-*.
1.**........***1*-.-.-.-..-...
*...*.-1..--0-*....1*.1....*..
...1.......*-..*....****..***1
.***.-...-.0-.-.*.-.-..*.*..11
....--.....-...............**.

Generation = 20, Population = 290.
****..............-1...**.....
*.--.*.-.***..***........-....
*****.*-.*...**......-......**
1*.*****.1..*........*..1...**
**..***..**.*.**............-*
**.**....**..*.1...-*.......**
.-.-*...**...**...........*.*.
...**..-*......*-........**.**
-.**..*........*.**...-.......
..-.1*.......*..*..-..**.*.*.*
....****...*.*.....1....0*.0.*
0**..*....**..*......*...*0.*.
..*0..*....*.*..1*....*.***-*-
..**..*......-..***0.*....*..*
..**...1*1..***..**..*-*.*...*
0.*..1.*...***......*-..**...*
.**..*.*..**.....**.*..-*.....
....**....0........**-**-1..-.
0.*****-.*1**......0*.*.0.*.*.
-***.*--..1*-*...-1...1**.*...
1....-.*.*...*.-*.****...*....
.**.**.....*.*....*.1..**.....
....**.*.*.*...1*..1....*..-1.
..*..*.-.**.*.*.*..****.......
..-*.-...*1.....*.....*....1..
-*.*.*.*......**...1.-*1*.1...
......--..0-.......*****......
.........**.-................-
*....-...**...1...-.-.*..**.*-
..**--...***..........*...****

Generation = 24, Population = 221.
.*.*..............-1..........
.*.*...1*................-....
..*...**.......*.....-........
.........*.*..**........-.....
..**.*.*....*.*...........***.
**.*.**.....***....-.....***..
**.*..*........*...........***
.*.**....**.................**
-**.**..........**....-*.....*
*..*-*....*..*****.....*...***
**..**..........*.*-...**..***
**...****..............*.*-..*
...-.**.*....*..1*.*.....****-
.....**......*...*****...*..*.
......**..*.*........*-.......
-....................-.****...
....*..*.***...........-...*..
.*........0*.....*......**.*-.
-.*.*..-*.1**....**-..*.....*.
-...*.-0*.1.-.........1....*..
1*.....*.......-...*****...*..
.*..**..*..............*......
......***...........*......*1.
..*.*..1............**....*...
..-..0...**.**...*.*.*.....-..
-......**..*.....*..*1..**1...
......-**.*-...**.*......*....
......***...-*.....*.*.......-
.....-..*****.-...0*-*...*..*-
....--....*.........*......***

Generation = 28, Population = 187.
..................-1..........
.....***.................-....
.....*..*...**.......-........
........**...**.........-...*.
....*...*...*..*...........*.*
........*.....**...-..........
...**...........*..........*..
..............****...........*
-.*...............*..........*
.*.*1..*.......**.*..***...***
*.....*.*.......*..-.*.*.*....
.***..*..*.......**....***-..*
...-.**.*......*......*....***
....*.*........*......**.**...
....*.*.........*....****..***
-................*...*.....**.
....................**.0......
...*...*.*.........*........-.
-.*.*..0****.......-**........
0**...**.***..........-.......
.......*.**....-..*...*.......
*******...........*........*..
.*......*................***..
...*...*.*.*......**....*.....
..-*.1...*..*......***.*...**.
-...............*...**......*.
......-.*..*....**..**.*...*..
........*..**....*.*...**.*.*1
.....-....***.-.......*...**.-
....--....*.......**..*.....*.

*** Life<Cell> 25x25 ***

Generation = 0, Population = 73.
-0---------0-------------
-----00--0--0--------0---
--0----------------000---
0--0--0-0---0------------
0------0-------0---0-----
--0---------0------------
------------0---------0--
-0---------------0--00---
---0----0----------------
--------0------00--0---0-
-----0----0--------------
-----------------0--0----
-----0-------------0-----
-------0-------0---------
0------------------------
-------0---0-------------
------0---------0--------
-0------0---0---0--0-----
-0-----------------0-----
--0--------0---0---------
------00-----------------
---------0-0-------------
--00-0-------0-----------
-------------------00--0-
-0--0--0----------------0

Generation = 5, Population = 289.
1**1--0-0----0--00---.---
-*-0.-.0-0.0--0----.0--10
-.--00-----*--01-..100*-*
.10-.--1*---*0-0--0-1*--0
*-1-----*-----01-00*--0*0
*----*0-1--0.-11----1*-1-
--1-0--1.0.0-0--1--1*10-1
--**01*0.-0-.-0-*-*1-*10*
*.-----0----*-0---0--0--0
----1---101**1.1---0-00--
1---00-10-0010-0-0---0-00
--00--0*--0-0--1*-10-01--
0--101-11100000-1--00-0*-
0-0*-10-0000-001--010-010
0---*.10-0-00--0-00*---0-
--11---*1---.---1-00*0---
-------*.--0-0--100**0-0-
--.01-.--10--0--.1--*1010
-.1*-00100-00--1------0-0
*0--101---01.00*---.-001-
--.-10---1**---0*0-00----
-1.-0--.*10--.0*--011----
1-1*-1--0--.0--10--*----1
-0100--00-0.00-0--.-*0.*-
*--0-0.*110*--0-0--01-.-0

Generation = 10, Population = 278.
...-*--1-*0--1--.**0.*11.
-...*.*-.-.-11--**-**-*.-
0*-0*-*-.1*..1-1-.*......
*.***.-.*.10**-*-***-.00-
**.--**0*.-**-1.--...0-.1
*10.*.1-...*.--.-.*.1.0.-
-**0*.*.*0***1*1.01..10**
-**..-*1*---*1*-.1.**.**.
**0--*11*-*1*----*.*01*0.
1..*.1**-1.*.**.1-11..---
1.---*--0..***1-.1-1*-11-
***-*11..--0--.*.*.**0.--
..0*0*-1..0*---....*-*..-
1-***1*10-------1--.--1--
1*0*..--*.*-.-*...-...-*0
-...---....-..-.*-.-....-
**-*--...0*-1.---11..--*1
0*.-****01.1-.*...**..*.*
**..*-1.*1.1..1.-.0--.011
**-**-**.*1..-0.---..-*.0
-0.1.1-**1*.-..**1-.-*100
--*-..-...1.1**..0...10*1
***.--.1**-.*01**.*.--*--
**.---.--...*.0-**.*..**.
.-..11....-.1--*---**-.-0

Generation = 15, Population = 221.
.*.1.1*-1.*1-.0-...-.....
-..*...1*-****1*..-..-..-
-..1**....*.**-*-**...*.*
.*....-*..*1..*.-*****.-*
.*.*-*.-......-.1-.**-*.1
.1-*.*--*....--.0...1....
-..0...*.0*......-***.*..
-....-....**.*...**.*....
..-1..***..*.*.*....*..**
1*....*.1.**.....-.....1-
.**0-..--...*.*-***.****.
...-.-.**0.-0*.......-.*-
....-.-.***.*1-.....*...0
.......*-.*-10*1**-.*..1.
*.1**.*-..*-***...-...-..
**..*--*.**-.....-*-...*0
**-...**.1*01.**..*...**.
.**-.*********..*.**.....
.**.....*....***-..*1..-.
..-....*..-..1****.*.-..0
.*.......*..-...*.-.-.-..
-*...*0..**.**....***.*.-
....1-*..*-*****.**.*..-*
..*--**--.....1......**.*
.0***........1..-.1..-**-

Generation = 20, Population = 213.
....*******-**.1*.*-.....
0*.***...0....*...*.**..-
1..1..**...****.1.*......
*..*.***...*.*.*1.*....-.
**..-*......*.-*.**.*-...
**-....1*..*.*-*1......*.
-.*.........*.*..1.*.**.*
-**..-......*....**.*...*
*.-1*.*...*............**
.*****......***.*1**...1-
.*......*..*...*******.*.
...0....*0*--.......*1*.1
...*-.-..**....*........-
........-*.-.1.-.**...*1.
.**....-...*..****1*..-..
.**..*.*.*.*.......0.**..
..-.*....*..-**.*.*...*.*
.***.........**..**...*.*
*..*............*......**
*.*.......-..-..*....1..-
***....*....-.....0.0.-*.
-.*...-.**.......*.....**
..**1.*...*....**.*...*.*
.....*.0-.*....****.***.*
.1***..***...-..-.-**0**-

Generation = 25, Population = 164.
.......**..1**..***-.....
1...*..**..*..*****.....-
...*.......*.****........
............*...-......-.
..............-......-...
..-......*....1..***..**.
........*.**.....*******.
**...-..*..........****.*
*.*-....*..*.......*.....
.***....***..**....*...1-
.*..*...**........*.*..**
..**.......1-..........**
.*.*-.-...*.*...........1
**......-.**.-...........
**.**.....**..*.....*.1.*
**.**.....**............*
...........*-...*.*....*.
............*...*.**.....
.....*........*..........
.....*....-..-.***.**1..-
.....*......-...*.0.0*...
*...*.-..*.........**.**.
*..*...****....**...*.*.*
*.....**..*....*..**...*.
.******.**...-..***..-..0

Generation = 30, Population = 144.
...........-***..**-.....
-...........*..*...*....-
.............*.....*.....
..............**.......-.
..................*..-...
..-.....*.....******.....
.......*..*.**.**........
..*..-..*.***.........**.
...-.......**........*.**
....*...**........**.*.*-
.....**...........**.....
.....***.**-.............
..*.*.0****..............
....**..-*...-...........
..***.................-..
..*..*...................
..***.......-.....**.....
....*..............**....
....***..................
...*..**..1..*....**.-..-
..*.**.**.*.0.*..*-*.***.
.***..1.******....**.***.
***...*..*...**..*....*.*
*.*......***..**....*.*.*
..........**.-.**.***-**-

Generation = 35, Population = 116.
...........**......-.....
-..........*..**........-
............**.*.........
.............*..*......-.
..............**.*...-...
..-............**.*......
.........**.....*......**
.....-....*.........*....
...-.....*.*.....*..*..**
...........*.....**.**.**
.........*..*.....*.*....
...****...**.......*.....
..*...*..................
......**-....-...........
.**.*.**...........*..-..
.*..*.*...........***....
.....*..*...-....**......
...**...**..........*.*..
.**.*...*........*..***..
*....*.............***.**
...**.......1.....0*.....
..............*.*.*......
*.*.......**...**.*.*....
...........*.*......*.*.*
...........*.-.***...***-

Generation = 40, Population = 79.
..........**...**..-.....
-........*....*..*......-
..........*.*....*.......
.................**....-.
.................**..-...
..-..........*...........
..............**.**......
.....-.........*..*......
...-...........**......**
.......................**
.........................
.........................
....................**...
........1....-...........
......................-..
*....***.*...............
.*.......**.-..***.......
*..*.....**..............
****.............**......
*...*....................
....**....**-...*.-*.....
...**....*.....*.....*...
.........***.**......*...
...............*.***..**.
.................**....*.

*** Life<Cell> 50x50 ***

Generation = 0, Population = 293.
--------------------0----0-------00----------0-0--
--------0------0--------------------------0---0---
----0---0-0----------0-0---00----0-----0----0-----
--0-----------------0------------------0--00------
0-0----0---------0----0------0--0----------0----0-
-------00-----------------------0---0--------0----
-------------------------------0-------------0--00
-----------0----------0-0-------------------------
00-----0-----------------------0----------0----0--
-0-------0--------0---0------0--------------------
--------0---0------------------0--------------0---
-0-----0-----0--------0-----------------0--0-----0
----------0----------0-----------0--------0-----00
---------0---------0-----------------------0-----0
---0----0-----------0--0----------------0---------
-------------------0--0---------0-----------------
--------0----------------00-0-------00-----0--0---
-----------0-------------------------0--0-0------0
-----------------0-0-----0---------00------0------
0---------------0---0------0-0------------0-0-0-0-
--------------0-------------0-----------0---------
---------0-----0------0-0--00--0----0-------------
0-00----0-----0---0-------0-----------------------
---------------0--00-----0---------0----------00--
---0------------0--0-------0-----0---0-0---------0
----0----------------------------0-0----------00--
----------0------0-----0------------------0-0-----
-0-------------------------0---0------0-----0-0---
----------------------------------0--------------0
-0--0--0--0---0--0000-------------00--------------
--------------------0------0------0-------0-------
---------0-----0---------------0---------------0--
0---------0--0------0-----0-----------------------
0------------------------0----------0-------0--0-0
--------0-0-------0----0---0----------0-0---------
--0-----0------------------------------0----------
--0---0------------------0----0-------------------
----0-----------------------------0---------00----
---0--0--0-------0---0--0----------------------0--
------0-----------------0-0---000-----00----------
-0-------0-0------0-0-------00---00---0---------0-
----------------0---0--000----0---------------0---
---0-----------------------------0-0--0----------0
-----0------0--------------------------------0--00
-----0--------------0-------------------0-----0---
------------0-----------------------0-------------
--0-------------0-0---------0--0---00--------0-0--
--0--0-----------------------0----------0---------
---------------0--------00----0--0-----0-0-0-0-0--
--0---0-----0-0--00-------0----0------------------

Generation = 7, Population = 1133.
-0--**-*.-*0---1*----1.*.--.-**-****.*.*--01*10*-*
-----*-1--**--1-110*-1--0-1-----1--1-1.-*0-.-1--1-
.0--.0--.---.1-1-.-..0-.1**.1-*0.-..*.-1*---*.*--*
.0.--01.0-0--**11000-0*-0--0**--.0----..11.*--*-11
00.0*--*--*1-1-.--1*.*0*00--.0..**.0.--.*1-*.1-1.*
-**-.0.-**1*-1--0*.---*0-0--..-0.0----*-.*.--11-*-
-0-1-*-----0*11--11---.--1--1--.1*-0-0*.0.*00**..*
-.1-0--.--00--10--0*00*---00..--1-000--0.0.*-*-*1-
.*..-1---...*-0*----0*1-1----.1*--111--1.*.0-0----
0.1.---*1*10-.-00--.--.1--.-00-----*1-*0.---1----*
1.-0*011*-----*010--0-----**-.*.-*----10*1*--1*..*
1.-.-0----00-0*011..---1--10*.---*--*01--.11---00*
*--11*.*1*10-0-1-*-.-00-0-.-.-11--1-.-*00---1.*.-*
-.0-------0-----001.1..*00*0-.-11---1--**1.-*.111*
*---**.-.100-0-*0.*-0-0*.*-1-----00-..*--0--1-*0-*
*.-1000.-00-0-*-*.*-.*0.1.-.*1*00110-.1*.0*.--.-0.
----*0110--0-*--0--*-*-01*.....10*1-**-.-*-1-.*0.1
--*0-1010---*--00-0*-0*-*0**---.-00---*.1*1.***-..
-0*---00-----..1--1*.0--1-*--00.1****0-1-*--1.----
.0.0----00*0-0..----.1*-*.--.---01-0***-1----0-.-.
*--*-*-*1-100*.-.-.1-1--*.*0.*-01*--1*----*.-1---1
.-01-.-*-000---*11**.*--.--*0*1-*--*0-10--.0--..-1
0....0..0----0--***1--00**-**-110*0.1*-*-0--.0.0*-
*.1.-001--*-**..-*--.*-*1-0-*--*0-*-....-0-10*..-*
11.-0--.---00--.-*0*1-1--..1---.1..-0--0*.*11--0--
0100---*.-*0--*.0...1-10*--.---*1.--.**-0--0-*..**
*-*.-1--.00--*-1*-**..1----.----1--10*1..-*-*0..--
*00--001--*-01----1--*01-.--*0*11-*0*000.-.1*11*.1
----------**0.*0**01.----*-.0-.-.-.--.*-1-0-1--101
-.-.-..-.-*1-.1-*.1-0*1...-*1*---....*.--100-*.1--
--01-*-0-*.00-*-11--*--1-**-0-*.*-.--0---000--**10
..1-11-0.-.1-..---111----*---11.01----*.--1.-*-00.
..*0.01-111..-0*.100.-.-.**--010--1*-0*010---10001
.0--0--1110-0-.1-*-*.-0.10-*0100---10-*--1-*1..-01
.0-***1-.1--.-0*-.--..-1--.*-*--0010*0.0-0*0--0---
-010.*.-.1.0.-00--**---11*1----01-*101110-01-0-*0-
-*.1-*.00.----0--1.0-0*-*---10*0---0**.1-0--*---.-
1--0---0.1000------01-0-.-*-0-----0-00.1***..*.---
-**11-*1*.-1-0---..**-..--.-*-.-*1*1--.0.1-.-.*1.-
-00-0-.**-0010------1-.---*1-1.-*.-0*.-**.**1.10*-
--.001*.00-1-.-*--**..1--01--..--.*---*0.0-**0.*-.
0----1----101-*-*1--*.-.*.-1*.---*-1*0-10---*.-0-1
10-.--**-.000-0-.-11--0--0010.1.*1.-**-10---00*--.
-1-1**--.-*-----.10110--*-*-*.1110-001*1-1*-0*--*-
1-.0--0-0-0--0-*.-.0.*0*-*--1**00*-**0*10---.-*.*.
00.--*100-00*0.1-.*1-*-**.*10-1.--*-11*-.---*.1---
.010-.------.1..*01-----.-00-----*1--*11..111**--.
.-.1-.**-0-**-.1--.*--0---.---0-1*00.11--01*-.-0-1
10*0**-1-*0010--*-.00.*.*.*---*0-0---*--10*111-0-*
10-1-*.00*--1-.-1...1.---**-**----1-.*0-.-10--00--

Generation = 14, Population = 1015.
.-.....**-.**0..***10****1-*******......-.-1..***.
.1-1-...-..**-.1.*...*.1-*.-11.0*.**.*.*..-.*.*--.
...0..*1...-.*-...-..1**.**..**..-...**..*10..*.-.
.1*.**..*-.--..*--.0-**-.0..**1....-..*.*-*..-*...
..*.*.1..*.*1.-*1.-..*0..1-*..*....0..*...1...*-*.
.*.**..1..**-...***110.01-.-.....-1**1.-....1.*..*
.-0..*-..1*.*.-*-***-*.**.-..-1..*.101**1*.*1.....
..-.-*0*0.*-**..*1-.1*.*0...**.1*11*1.--..**..1**-
**.*11.*-....11.*1111.-.-.**1.**-0*..*.**.*.**.1*.
**1.*-.....-0.-*.1***-...-.-*.****1.*....-.-*****.
**....*..11.-**..-1-*01.00..*...-.*-.*.**-.-.....*
**1*1..--*--0..-**...*1.---.*.-.*.*1.-*.-*..---**.
...*1..*...--*..-*..**...1.1....1.*-.1.**0-..***1.
0.1----11**.-0.*1*.*.*...*.*****.-..*-1..-.-..**..
.1.1.*.-.*-..0*....-..-..*..--*--11-...*10-..**...
*...-1..-*0.0*.**..-..**.*-.*-.-.-*.1...*-.*10..-*
*1-.*-.*.--*-*..-.......*.**...-1........*.-*...**
.-.*..-.-..*..----*..*.**.*.-.-.1*11-...*.*.*..0*.
...--*--...-***.-1...---1*.*.**..***.*-*..-.*.--0*
....-*0-1**1-...*-...**..*-*...-.*-0.*.-***1*-**.*
.-*...1.11..*..*.*...--*.*.**...-***..****..-..1.*
**--...*0*..1....*.....1.1.......11*.1.*0-**1*....
*.....*.*-1.*..-.......*..*...*.-.1..***-*..****..
...**11.--.......*-1*.-.--10.*1.**.**..***-1...*..
....0--...**.1..-*-**-*.**..111.*.**---*..*....-*.
**.**01..1..--.*..*..**.**-.**-...1.*..*.1**..*..*
*1..1.*-.-.*-..******.*11--..1*-*.**-*.*.-*1...*.*
*0.*-*-.-..-11*1--..**-.*.-1.-*-*-**.*-.*****.1...
-.*-0*0.*-..-*.**.*..0.0**-.-1*-.1.*.....11***-*-*
*....*.-.1**1.1*.*..*...**..-.-.........-...-..*.*
*.....-1****1..*-*1.*.*.-.*1.*...1....****1-**...*
*..-...-.-*.***.1-..101.****0*..*.-*--..01*...11.*
.....0.-1*....*..1-..1*..***-1.**-..-**..-.1****-*
*.**.1...*1-.*..1.0.**1..-1*0.*--...*-...*.*..*1-*
*-...*.*..--..-...0-*.....*.-.*01-.1.-*.1-*.*.0.1.
*1*....0...*..--....11.....1**.0*-.**.-1...*.-.*.-
-**.-..-..*.*1...1**0*.*.*-..-*-.-*-*..--*--**.-.*
.*-.-1-0..0...0*-*-.****...**.-.10.00-...*.....***
0...1..*...10****..**-..*..-*.**.***-*.1*.1.0.*..*
*-.*1*...**-.--1*1-..-.*11**.-.**..*.*.......*.-..
*..*-*..-.0*-...*-*...***.-*...0-..*11...*1*.-*...
.--.**-1.****1.-*..*.......*..1-1.***11.-*-1..1.--
*-..1-**-...-0*1...*.110****..**....*.0.--*.-..--.
*.*1*..*.1*1***-*..1.*-**.*-..*..*0.*.*.-*.-1.-*.-
.*.**.*..-.1-.0*.-.-..-.-..****-..-**..**.*.*...**
0-*....1**1..*.*0...-.*.*.*.*.*.**.0...-*.*1****.*
.-*1-*.-...-.*...0....-**.--*.***.**1*1*..**...***
.1.1****0.-....-.-.**-*-*..-1.....**..-**0.....-.*
.*.1.*-1**--.-...**0....*.**.*.....*..-..*.--...**
*-.**..-0*10.-..*......*...*..-.0-..***0.--0--.-1*

Generation = 21, Population = 832.
.*......*.*..*.*...--....-*.....**......-...**....
.-*.....1.*..1..........-..--...***..**...-.*.*.**
**......*...*.1...-........**....*...........*****
*............*..--.--..*.-..*..**...*....*.**.....
*.**..-.....*....*-.*.0*..*.....*..1.*..****...-..
*......**.**..*..*..*-*-*-.***.....**1****.*.*....
*.1...-..*.*..1*-...1.*....*****....-...-....***..
*.....-*.*....*...1..**.1*.....-.1..1.*1*........-
..........*..-*............*...*.-......*.....**..
.....1......-*..*...*-.....-......*.*..*.-...***..
.**......-..*****1*1*1*.*.*.**.*-**-..*..-.**.....
.*-.-..1*.-*-*.-.**.*...1-..**-......1*.-...-.*...
..*..*.*.*.1.*...*......*.*.**....**.*...--*.*..-*
.*...1-*.*..0*.*..*.....****..*..**...*...*.*.****
..*.**...*....*..**-..-....*01***.-*..**..0..*....
*.*..**....*.***...-**....-*...1.1.......**.*-**-.
.*-*.**...1.***...*........**...**.....*.**-..**..
....**0*-.*...*1*-*....*....**1*..*.1...*..*..*-..
....-.*-*.**.*.......-.-..****..........*.....1-0.
......--**....**.-....**..*..*....*-*...*.........
..**...****.*****.....-.............**.**.........
..***...0.*....***....*.*.....***.-...**1......*..
..**.*.**.1***.**.*....**...*..*-.......****.*.***
.....*..*..**...*..**....*..*.*...*.......*****.**
....1..*..***-......**..*.....1*.*..-.**...**.*-**
.....*..*-***....**.*.**.*-***........**......*.**
.......**1**-**.....*....1-*.-.-....*.*.***...*...
.1........*-.*.*0.*...-...11*1........-..*.**.1...
*......*.-*..*...*......*.**1...*.........**.*0..*
...**..*.-...*.........**..*1.*.*..**.............
...**...*....*.........*-..*.*.*.1*..*.*.**1*.....
*..**..-*0*..**..****.*....*-..*..*..*.**.**.**.**
*......*****..**...*.......*-.***-.**.***-....*.-.
*..*.*..**..*.**-..*...*.-.*...**....-.*.......***
.***.*......*.1*...1*...*...1..*.**....***....-..*
..*****.****.**1*....***.**.*.*-*1*...**.....-.*.*
-..*...-.**.**.**-..-.*****..-*-.-.1..*.1.--.**-.*
.*1.-.1.......**1*1*****.**....**-.1-**.....*.*.**
..*.........-...**..*-**..**.*****....*..*.**.*.*.
*.*...*........-*.-.*-..1...*-*..*...*...**.*..-.*
**.*-.*.****-....***...........*-*........**......
*.1***1**.**...-........**.....11..**...*.1..*..**
*...1.*.*...........**.1**...*.....***-.*...-...-.
....***.*.*..**-....**-**....*.....*.***-....*.***
......*.*0**-.0*.-.-.**........-..*.***.****.*..**
-...........****-......**........*.***.**.....*...
**.-...-..*-.**..-......*.*0......*.*.*.**...*..*.
.....*.....*...-.*......*.***......*..-.*-....*.**
..*1..*-..*..-..*.*.....***...*.......1**..*-**..*
.**....--*1..-..*.*......*..*.*..........***10.**.

Generation = 28, Population = 710.
..**...............--....-..............-.........
.***....-...............-..............*..-.**..*.
.............*-*.*-....*.......*......**........**
.................**-1.**......*.*....*..*.......**
*.....-.......***.1**...*......*.**...............
*.**....***..*.****..*****....*..**......**.......
.*-...-..***.*..*...*.*****.*...*........**.......
......-...*..*...*-.......*.*.*1..*.1..1***.*.*..-
..................*.......***..*..*..*.**..**..*..
.....-......*........1.....1...*.*...*.*.-..*...*.
**..***..1....*....-.-..*......*-**....*..*.....*.
..*.*****.1............****...1*.*.*.-.**.*.0**..*
**...*...*.**...**.*..........**....*..**--*..*.**
.........**...............*......*..*..***.*.***..
...***...**.*.*....***-.....--......*...**...*****
..*.**......*....**-...*....*....**....*..*..1*.*.
..*..........*....*........*.**.*......*****..*..*
.....***.......*.1**..........1..**.-...*..*.*.*..
.......0..........**.-**.**..*.............*.*.*1.
.....**......**.***.....*.***......-..*.*.....*...
.....**.****....*....*..............*****.**......
......***...***.......*.*....*....-..*............
.....**.**1.............**...*.*-....*..*.........
.....**...**..*..*.*....**....*......**.*...*.....
..**.*....**..*..*..**..*..*..1*...**...*...*.**..
...*****.-......*...*.*.*.******...**...**.**.*.*.
...*****.1*.......***.........*-*..*.......*..*.*.
.-......*..-....1***.*-...*1..*.*...*****..***..**
..*......-........*...*...***..........*.*.**.0.*.
.***.*...-*.....*.**...*..*.-..........*..*.*.***.
**.*..*..***....*...***...*.....*......*.......*..
**..*.*1.1..**.........*....0***.*.....**.....**..
*....*.*.**.*.*.*....***.**...**.*....*****...***.
*..*...*..*.......*....*..*......**.........**.*..
.....**....*.*....*1*..**.....*.....**......*..*..
....**........*-..*..*..*.*...*******.**...**1**..
-......-......*...*.*....**..-*-..**....-.-**..*..
..*.0**.***.**..-*-...*****.........-..*.**...**..
..*.*.*.*.*.........**..*..........*......*.****..
*.........*.................**.........*..*.*...*.
.**.**.*..*......*........*.*..*...**..*...*...*..
.***.*-***.....***.......****.....**.*....*...*..*
.....****....*....*.**..**.*...**..*..0.*...1.***.
........*....*****....1*..*........*......*.......
.........0..**.....-......*.....*..**...**........
-........***..***.....*.*.*.....*..*..............
..**...-...0.....**.....*.*.*....**...............
..**.....*..****...*.*.****.**........-***........
.......-*...*1........***....*........*...*.......
.......**.*..-...**.........*..........*..*..-....

Generation = 35, Population = 636.
...................--....-..............-.........
........-...............-........*....**..-.......
..........***.-....*...........**.*...****........
.........*.......*...***.......**.*....*.*........
.*....-.**...**.*.....*******.....*.....**........
*.*.....**..***.....**...*.*...*..*......*.**.*...
.*-...-..*..*........***.*..*.**.*......**.*.*..*.
......0*.**.*.....*...*..**...******-..-.***.....-
...**.***...*..***......*......***....*..*.**....*
..**.*......**.......-.**......**..**..**...*.*.*.
.....*....**.......-.-.**.***...-...*...**..**.*..
.****.....1............**.**..-......-...*..-...*.
.....*.............**............***.....*.*.*..*.
.....*..*.........*..*............**.........***..
.......*.....*.....**.-.....-1....**..............
............*.*....1............*......****.......
...........*...**................*.*.******.......
............*...**.................**...*.........
............**...*...-..............***........**.
........*.*.....*..................-.*....**...**.
........**.....*..*.....................****.****.
.........*.**.**.........**.......-.....**.*.*....
..........***.*.******...**.*.*.-.......****...*..
..............*.....**.....*...*.*......*******...
........***....**..........*....**...*.*..........
..**...**-**..*............*...**..*.*..***.**....
........*...*.*............*..*..*...........*....
...............*..**....**.1.*.........***.**.....
..**.*......****.*.........**..............***.*..
.**.**...-..***....*.**....**..........****...*...
.*...*..**.*...***..**...*.**...**....*...........
...***.**.***.*******...***.-...***.***...........
....**.**..**....***...........*....*.*...........
......***.**...................****...............
.........***........*..........**....*.**.......**
...***.*.*....*...**..*..............*.*........**
-.*........**..**..*.*.*.....1....................
..*.*...*.**..**1.1.**.*....**......1***..........
......**.*....*..***..*........****.***..*........
.....***.**.*.****..***..***..*..**.....**........
......*.....*........*..*.....*....**....**...***.
......-......****..***........*....***..***..*.**.
......*......*......**.....*.*....*......**.**....
......*.....*.....*.***..*.******.***.**......*...
....**......*......1.*..*.....*..*.*****.**.......
-...**..***.*.**.*.*.***.*.*..........*..*........
..***.**...**...**...**..*.**.**.**..*..**........
..**...***...*...****...*..****.......-...........
.......-.*.***..........*................*........
...........***.........................*.*...-....

Generation = 42, Population = 503.
...................--....-.......**.....-.........
........-...............-.....**.**.......-.......
.........**...**..............*....*.....**.......
..*......*.*.***....**........*....*.....**.......
.***..-..*..**......***......*.............*......
*...*......***.......*.*.....***..*..........***..
*.**.......***..*...*..*....*.**.*........***.....
.*.***-.....****.*..*.**........***....*.***.....-
....**......*..*.*..*.....*..*...*.*.**.*.*..**...
.....**...***...*...*.*..*..........*.*..****.*...
....***...*..*......*...............*....*....*...
....*.*....*.*........**..***.-.*..*.-.....**..*..
....**.....***........***.................**.*.*..
.................*....**................**.**.**..
................**....**....1-..........**...**...
................**..*.*.............*....*.***....
.....................*............**.*......*.....
..................................***.............
...............**....-...............*..........*.
..............**.*.................0**.........*.*
.............*.*.**.....***........*..*.......**.*
............**..**.**..*.......*..-*..........*..*
............**.***...****.*...**1..***.........**.
............*...*.***....*....*.*..**.............
..........**....*..............**.*......***......
........*-..**............*.....*........*........
......***.................**.............***..***.
..........**.....*........*-.....................*
.......*.***....***........*..................*...
..*.***.........****......****................***.
.*.****...........*.*.....*.......**..**..........
.*....*.......*...****.*.*..**....*..*.*..........
.....**.......*...*****.***.*....*...*.**.........
...*..***.........*.......***..*.......*..........
...**...**......***......*....*.....****........**
...**..**.......**.*.*........*...*.............**
-...*.............****.*.*........................
.................**.....*......***.*..............
.....**....*....*..***..*......*..**..............
.....**....*......*....*..........*...........**..
....*..*...*.......*.*.**.....**..**..........*.*.
....*..*..........**.**..**.......**...........*..
.....**...........................................
.................**......................***......
...........**........**...........*.....****......
-................*...**...........*...***..*......
.................*.*..............*.***.**........
.........*...*.......**.............**...*........
.......**..**.*.....*.*........*.....*.**.........
........**..**......**.......**.......***....-....

Generation = 49, Population = 461.
..*................--....-.......*.......**.......
..*.....-...............-......****.....*..**.....
.*.....**......................*.......***........
......****...................*...*.....****..*....
..*..**..*.................**....*.........*......
..**.**.**.....******......**...*.................
..**.*........*.******........**..................
...*.*........*.**.........***...................-
.....*.....**.**....***............*......**......
.........**.**...****......***....***.....*.......
.........**.**...**.*.*..........*.*....*.**....*.
....**...***.*...**...**......-..**..-.*****...***
....**....*...*.....*.*......................**..*
..........**.......**.*.....................*.**..
..........**.**......*.*....-1...........**...*...
............*.........**................*...**....
...............*.*......................*.........
........................................*.*....*.*
.............*.......-.......*................**.*
............................*.*..*.-........****.*
...........*....*..*..........*.*..*.......**....*
..........*...*.*..*.......**.*.................*.
...........*...******.**.....*****.......*.....**.
...........*...********..***.*..*.......***....*..
...............**..*..*.*..*.*.*.......**.*....*..
.......**1......**.*......*..*..*.....**........*.
......*.*..........*.....*....*..*.....**.*....*.*
.....*..............*.***..-...**.......***..**...
..**.....................................*......**
..**....*.**................**...............*.*..
.*........**................**.....*..........*...
..*.....*.**.......................*..............
..*....***.............***.........*..............
........................*...........*.............
.................**.....*..****.....**..........**
.......*****....*...****....***.....**.**.......**
-......*****.....*.....*****.*..*..***.*..........
......**.........**.......*.....*..*..*...........
.......*.*.*........*....**....*..*...............
......**....*.........**.**....*.*............**..
......*..*.*...................*.*............*.*.
.......***......................*..............*..
........*...................................**....
...................***......................**....
................***.**..............***.......*...
-...............*.***.*............*****....**....
...........*.**..**...............*.*****...**....
...........*.**...................**....**........
...........*..*....................**.............
....................................*........-....

Generation = 56, Population = 408.
........*..........--....-.......**...............
........***.............-.........**......**......
.........**.....***..............**.........*.....
..............*...**.........*...*................
.............*.....*........*..*......**..........
.**........*......****.....*.**........**..*......
.*.*.......*......***.....*..**...**....***.......
.*.....*...**.............*.*....****............-
.....***...**.*......***...*.........**...........
......**......*.**...***..........*...*...........
......**...........*...............*...*.......*..
....***...***.................-....*.-.*.*.....*..
....**...........**..................*...*..*.....
..................*...*...............*.**.*.*....
.........*..*..**.******....1-.......**.......*...
.........*......*..**...*............***...*.*....
..........**...*.......**.............*..*..*.....
..............*........*...............***.....**.
.....................-.......***.......***....*..*
..............................**...-..........*..*
.............................*................*..*
........................*.......................**
..........*.............**.....***....**..........
.........*.*...***......***...***.**.*..*.........
..........**..*....*......**..*.*.***.............
.................*..............*...**...*........
...**...........**.***...*.....*...**.....**......
..**.*..........**.**..**..*.....*.****...........
.**..............***...*.********.................
**...........*....*................*...*...*......
**.........*.*....................*.*...*.*.......
*..........***....................*..*..***.......
.*......***..........................*............
...........*............***.........*.*...........
.......*...*.....*.........*.........*.*........**
.......*....*..**.......*.**.........**.*.......**
-...........*..**.........**....**......*.........
......*....**........***.*.*.***...*...**.........
......*..*...........***..*..**...*...*...........
.....**.*.................*...*...................
...***..*................**..**...................
....**..*........*............**.**...............
.....*..........*..*..........**.**...............
......***.......*...............*.................
.......*........*...*........................*....
-................*.*...............*....*...*.*...
................***...............*.*..*.*..*.*...
.............*...*...............*...*..**...*....
.............*..*.................*.*.............
.............*..*............................-....

*** Life<Cell> 5x5 ***

Generation = 0, Population = 4.
-----
-----
-----
0---0
0-0--

Generation = 3, Population = 15.
0---0
1000-
---0-
*0001
.0-0*

Generation = 6, Population = 12.
1-0-0
*0---
-0---
*110-
*.-0.

Generation = 9, Population = 8.
*-1--
*----
--10-
*.-1-
*.--.

*** Life<Cell> 5x5 ***

Generation = 0, Population = 6.
-----
0--0-
--00-
00---
-----

Generation = 8, Population = 13.
1*0*-
*-.-*
.--.*
**.0*
**-.-

Generation = 16, Population = 11.
*...-
*-***
.-.**
..*.*
..**.

*** Life<Cell> 7x7 ***

Generation = 0, Population = 10.
----0--
--0-0--
----00-
-------
-----0-
-0---00
--0----

Generation = 2, Population = 27.
--1--10
0-0-0-0
--110*1
-00-100
--001*-
----1-*
0-0-01-

Generation = 4, Population = 22.
1-*-1.0
-00-*-0
10*--*.
----.0-
-00-1*1
-0----*
0---0.-

Generation = 6, Population = 27.
-1*-*.*
1--0.1*
*-**0.*
---0*00
10--..1
---010.
-00-0.1

Generation = 8, Population = 26.
-*.1*.*
.0*-.**
.-**-**
-*1-.0*
***-*.*
-10-.-*
---1-.1

Generation = 10, Population = 20.
*.***..
*-.-...
.-.*0..
0**-.-.
...-.**
01--.**
0-11-.*

Generation = 12, Population = 13.
.*.....
.1.1*..
.-..-*.
-..0.-*
*..-..*
-.--...
**..**.

Generation = 14, Population = 11.
.**....
....*..
*-..1*.
-*.-*-.
...-...
0.01...
.......

Generation = 16, Population = 10.
....*..
..**.*.
.1.....
-..1.-.
.*.1...
-*-*...
.......

Generation = 18, Population = 5.
..*.*..
..*..*.
.-.....
-..*.-.
...-...
-.-....
.......

Generation = 20, Population = 0.
.......
.......
.-.....
-....-.
...-...
-.-....
.......

Generation = 22, Population = 0.
.......
.......
.-.....
-....-.
...-...
-.-....
.......

Generation = 24, Population = 0.
.......
.......
.-.....
-....-.
...-...
-.-....
.......

Generation = 26, Population = 0.
.......
.......
.-.....
-....-.
...-...
-.-....
.......

Generation = 28, Population = 0.
.......
.......
.-.....
-....-.
...-...
-.-....
.......

Generation = 30, Population = 0.
.......
.......
.-.....
-....-.
...-...
-.-....
.......

Generation = 32, Population = 0.
.......
.......
.-.....
-....-.
...-...
-.-....
.......

Generation = 34, Population = 0.
.......
.......
.-.....
-....-.
...-...
-.-....
.......

Generation = 36, Population = 0.
.......
.......
.-.....
-....-.
...-...
-.-....
.......

Generation = 38, Population = 0.
.......
.......
.-.....
-....-.
...-...
-.-....
.......

Generation = 40, Population = 0.
.......
.......
.-.....
-....-.
...-...
-.-....
.......

Generation = 42, Population = 0.
.......
.......
.-.....
-....-.
...-...
-.-....
.......

Generation = 44, Population = 0.
.......
.......
.-.....
-....-.
...-...
-.-....
.......

Generation = 46, Population = 0.
.......
.......
.-.....
-....-.
...-...
-.-....
.......

Generation = 48, Population = 0.
.......
.......
.-.....
-....-.
...-...
-.-....
.......

Generation = 50, Population = 0.
.......
.......
.-.....
-....-.
...-...
-.-....
.......

Generation = 52, Population = 0.
.......
.......
.-.....
-....-.
...-...
-.-....
.......

Generation = 54, Population = 0.
.......
.......
.-.....
-....-.
...-...
-.-....
.......

Generation = 56, Population = 0.
.......
.......
.-.....
-....-.
...-...
-.-....
.......

Generation = 58, Population = 0.
.......
.......
.-.....
-....-.
...-...
-.-....
.......

Generation = 60, Population = 0.
.......
.......
.-.....
-....-.
...-...
-.-....
.......

Generation = 62, Population = 0.
.......
.......
.-.....
-....-.
...-...
-.-....
.......

Generation = 64, Population = 0.
.......
.......
.-.....
-....-.
...-...
-.-....
.......

Generation = 66, Population = 0.
.......
.......
.-.....
-....-.
...-...
-.-....
.......

Generation = 68, Population = 0.
.......
.......
.-.....
-....-.
...-...
-.-....
.......

Generation = 70, Population = 0.
.......
.......
.-.....
-....-.
...-...
-.-....
.......

Generation = 72, Population = 0.
.......
.......
.-.....
-....-.
...-...
-.-....
.......

Generation = 74, Population = 0.
.......
.......
.-.....
-....-.
...-...
-.-....
.......

Generation = 76, Population = 0.
.......
.......
.-.....
-....-.
...-...
-.-....
.......

Generation = 78, Population = 0.
.......
.......
.-.....
-....-.
...-...
-.-....
.......

Generation = 80, Population = 0.
.......
.......
.-.....
-....-.
...-...
-.-....
.......

Generation = 82, Population = 0.
.......
.......
.-.....
-....-.
...-...
-.-....
.......

Generation = 84, Population = 0.
.......
.......
.-.....
-....-.
...-...
-.-....
.......

Generation = 86, Population = 0.
.......
.......
.-.....
-....-.
...-...
-.-....
.......

Generation = 88, Population = 0.
.......
.......
.-.....
-....-.
...-...
-.-....
.......

Generation = 90, Population = 0.
.......
.......
.-.....
-....-.
...-...
-.-....
.......

Generation = 92, Population = 0.
.......
.......
.-.....
-....-.
...-...
-.-....
.......

Generation = 94, Population = 0.
.......
.......
.-.....
-....-.
...-...
-.-....
.......

Generation = 96, Population = 0.
.......
.......
.-.....
-....-.
...-...
-.-....
.......

Generation = 98, Population = 0.
.......
.......
.-.....
-....-.
...-...
-.-....
.......

Generation = 100, Population = 0.
.......
.......
.-.....
-....-.
...-...
-.-....
.......

*** Life<Cell> 8x8 ***

Generation = 0, Population = 3.
--------
0-------
--------
-----0--
0-------
--------
--------
--------

Generation = 8, Population = 9.
.-------
.--1.-*-
--.-----
---0-*--
*-----0-
0-.--0--
--------
0-------

Generation = 16, Population = 30.
*-.-*10-
*1-...*-
*..-.**-
..*1...*
*---.*.1
*...-*.*
*1*10*.-
*-*-.000

*** Life<Cell> 9x9 ***

Generation = 0, Population = 2.
--------0
---------
---------
---------
---------
---------
---------
--0------
---------

Generation = 7, Population = 37.
-010-----
-0100----
0-0010---
-0-0100--
----0010-
-0---0100
0-0---001
-0-0---01
--0-----0

*** Life<Cell> 12x12 ***

Generation = 0, Population = 62.
---0-0-----0
----0--00-0-
0---00-00-00
-00-0-----0-
00--00000---
----0000-0--
-0--0-0---0-
000----00---
-0-00--0-0-0
-00--00---00
-00--00---0-
-0---0-00-00

Generation = 3, Population = 83.
1-00--00-1-1
--00.*-0--10
-1--..1000*1
--*---0-0-.-
1-00.-.-11--
*0-*-.110111
111-.*10*-0-
-111-11--00*
010*.-1.0001
01-00101--1-
**-**1-00*-*
0----.0---1*

Generation = 6, Population = 69.
*--1*1-111-*
--10.*-1---*
0-0-.**1*1.-
--.--1*001**
**-1.*.1.*--
.11.-*-*-*..
--**.*-..1-.
..-*01.1.--.
0*...-*.*10-
*.**-..1--.0
*.-*.--0-*0.
-*10-.-*11*.

Generation = 9, Population = 74.
*-11.1-11.1.
**1-.*0-011.
--*-***1*-.-
10.--*.--*..
.*0-.**-.*10
*1-...-*1*.*
-*.*..**.***
**-.--.1.-0.
-*.***...1**
*.*.-.**--.1
*.*.*1000.-.
-*11-.0.-**.

Generation = 12, Population = 62.
**-***1.1...
...0**-1--1.
-**-*..-.-**
*0.-1.*-1***
*.*....1..1-
**-...**1...
-*.***.*....
..-.--.*.-1.
-...**.*.*..
....1*..--*.
*.*.**0*-.**
-**.1.1.-**.

Generation = 15, Population = 49.
..-...***.*.
*..-..0-1.**
1**1...*.1*.
*-.-...-.*..
.**...*...*-
..-*..*.....
1**.****.*..
..-.--...*-*
-.*...*....*
......*.1-.*
*....*1*-..*
*..*.....**.

Generation = 18, Population = 52.
..*....*.*.*
.*.0.**-...*
.*.*.**..-.*
.0.-**.1*.*.
.*.*....**.-
.*.....*.*..
*......****.
..1..1.*..*.
-....***.*.*
........*0.*
.....*..1*.*
.....*.**.*.

*** Life<Cell> 15x15 ***

Generation = 0, Population = 42.
---0-----0---00
---0--------0-0
-----0-0------0
----------00---
0-----0----0---
-----0----0-0--
---------------
-0-------------
-0---00----0--0
----0-------0-0
---------------
0--0---------0-
0-0-----00--0-0
---------0-0---
---00-------00-

Generation = 4, Population = 84.
1--.--0--010-.-
---*-.-10---*1-
-0--------01111
-0----01-*.---1
-1-0*001-00*-0-
-*-00-1-00-.---
-----.-1------0
1*-*-1----01-01
-----11.0--1-*.
0.-.-0.--1-1---
*--00-------.0-
*.*-.--1-.---1-
-0000---*-1*1--
.--1-1-*-.-0100
---.*1-1*.--1.-

Generation = 8, Population = 94.
**-.--*--1-.*.1
---.0.1.1--..-1
*.-00*--**--..-
-01---0--..0-..
-.0-.--*-10.*-*
-*00-0*0.0-**.0
-----*11-0--00*
.*-*-.---*-10*1
--1.*..**1*10**
*.1.-*.0--0.-0*
..-*.---*0-.**0
...0.-1.*.-1*.*
-***.---.-...-.
.1-.1.1.1.--.--
1*-**1--..0-**.

Generation = 12, Population = 66.
.*-.-..-0--..*.
-.*.....*1*..-*
.*--.*0-..1..**
-*1-.1--.**-..*
-***..-.--...*.
.*.*11...-**.*1
*--0...-1-.1*..
.*-.-..*-..*-..
1.....*.....1..
....-..*.*..*..
..-..100.*0...*
...*.0.*..-....
.....0-1...*.-*
.-1...*.*.--.01
..-**..-..--...

Generation = 16, Population = 67.
..**0..-1-*....
0.*......-...-.
..--*.1..*1.*..
*.****-*.......
-*.*.*-.***....
.*.*1....-*..**
.*.....1**.....
*.-.-.*.0*..1**
-..**.**.......
....*.*........
..-***-**......
...*.0.*.......
...*.***..*..-.
.--.....*.0-.--
..***..**.--...

Generation = 20, Population = 70.
*.*.-**1*.*....
*.*......*.**-.
*.0***1*.*.*...
...*..-...*....
-....*-.**.*...
...*.....-.**..
.**....*******.
..*.*...-**.***
*.*.*.*........
..*............
..*...-........
.....-***.*....
....*..****..-.
.1-..**.**11.--
.....*....0-...

Generation = 24, Population = 58.
...**.*-.......
...*...*.*.....
..1..*1**.*.*..
.*****0......*.
0.*.*....*...*.
...**.*..*..**.
...*..*****..**
...*....-......
..**....*......
..*.....*......
......1**......
....**.**......
......*......-.
.1***.....-..--
...*......--...

Generation = 28, Population = 56.
..***..-.......
.*..*...**.....
.*.*...*..*..**
.***..0*.*.****
-.....**...****
....*......*...
........*..*...
...*.**.***.*..
...*......*....
...*.....*.....
...****..*.....
...*..*.*......
.*.*.........-.
.*..*.....-..--
..........--...

Generation = 32, Population = 52.
.**....-**.....
.*****....*....
...............
*.*.*.1..*.....
-.**.*....*....
....***.....**.
..***....*...*.
...**.***.*....
...**....**.*..
.......***..*..
.........**....
..*.*..........
.....*.......-.
..*.*.....-..--
...*......--...

Generation = 36, Population = 39.
.......-.......
.**.***........
***..**........
**...*1........
*...*..........
.**......*..**.
.....*...*.*.*.
...*.*.....***.
...........**..
...............
...............
....*..........
...*.*.......-.
..*..*....-..--
...**.....--...

Generation = 40, Population = 37.
.......1.......
.**..***.......
.**..*.........
.....*1........
...***.....***.
....**.....*.*.
...**......*..*
............*.*
............***
...............
...............
....*..........
...*.*.......-.
..*..*....-..--
...**.....--...

Generation = 44, Population = 43.
..*.*.***......
.**............
.*......*...*..
.**....*...***.
.*........*..*.
.....*...***...
..*.*.....*.**.
..........***.*
...........*..*
............**.
...............
....*..........
...*.*.......-.
..*..*....-..--
...**.....--...

Generation = 48, Population = 25.
.***...........
*...*......***.
*.........*..*.
..**.....*..*..
..........*....
...............
...............
.............*.
.............*.
...............
...............
....*..........
...*.*.......-.
..*..*....-..--
...**.....--...

Generation = 52, Population = 23.
..........**.**
...........*.**
.........*.*...
........**.**..
.........*.*...
..........*....
...............
...............
...............
...............
...............
....*..........
...*.*.......-.
..*..*....-..--
...**.....--...

Generation = 56, Population = 28.
.........****..
........*..*.*.
.......*....***
.......*...*..*
............**.
........*...*..
.........***...
...............
...............
...............
...............
....*..........
...*.*.......-.
..*..*....-..--
...**.....--...

Generation = 60, Population = 39.
........*****..
.......*....*.*
.......*..*.*.*
.......**..*..*
.........******
..........**.**
...........**..
.........*..*..
..........**...
...............
...............
....*..........
...*.*.......-.
..*..*....-..--
...**.....--...

Generation = 64, Population = 23.
......***..**..
.....*....*.*..
.....*...*.....
.....*.........
......*...*....
........***....
...............
...............
...............
...............
...............
....*..........
...*.*.......-.
..*..*....-..--
...**.....--...

Generation = 68, Population = 30.
...............
....*.***..*...
....*****..*...
....*..**.**...
........*.**...
........*..*...
.........**....
...............
...............
...............
...............
....*..........
...*.*.......-.
..*..*....-..--
...**.....--...

Generation = 72, Population = 26.
...............
....*.......*..
..**.**.....**.
....*......*.**
............**.
.........*..*..
..........**...
..........*....
...............
...............
...............
....*..........
...*.*.......-.
..*..*....-..--
...**.....--...

Generation = 76, Population = 35.
...***.........
..*...*......*.
..*...*.......*
..*...*......**
...***....*.*.*
.........*.***.
........**..**.
.........*.....
...............
...............
...............
....*..........
...*.*.......-.
..*..*....-..--
...**.....--...

Generation = 80, Population = 37.
...*.*.........
..*...*........
.***.**.*......
.*......**...*.
.......***..*..
...***.**....*.
.......*.*.....
........**.....
........**.....
...............
...............
....*..........
...*.*.......-.
..*..*....-..--
...**.....--...

Generation = 84, Population = 35.
.....*..*......
.*.***..*......
**.**...*......
.*...***.......
....*.**.......
...**...*......
....**.........
.......*.*.....
........*......
........*......
...............
....*..........
...*.*.......-.
..*..*....-..--
...**.....--...

Generation = 88, Population = 39.
.....**.**.....
........**.....
.....**........
**....***......
......*........
..**..*.**.....
..*.*.*.*......
...**.*..*.....
......*...*....
.......*.*.....
........*......
....*..........
...*.*.......-.
..*..*....-..--
...**.....--...

Generation = 92, Population = 29.
...............
...............
...............
..*.*.*........
.**.*.*........
..*............
...............
...*.*..**.....
....*...*..*...
....*...*..*...
.......**......
....*...**.....
...*.*.......-.
..*..*....-..--
...**.....--...

Generation = 96, Population = 27.
...............
...............
...............
...............
***............
...............
.......***.....
......**.*.....
....**.........
......***......
...***..*......
...............
...***.*.....-.
..*..*....-..--
...***....--...

Generation = 100, Population = 18.
...............
...............
...............
...............
***............
...............
...............
....**.........
......*........
....*.*........
....*..........
..**.*.........
..*.***......-.
..*...*...-..--
..........--...

Generation = 104, Population = 9.
...............
...............
...............
...............
***............
...............
...............
.....*.........
.....*.........
.....*.........
...............
...............
...*.........-.
..*.......-..--
..*.......--...

Generation = 108, Population = 6.
...............
...............
...............
...............
***............
...............
...............
.....*.........
.....*.........
.....*.........
...............
...............
.............-.
..........-..--
..........--...

Generation = 112, Population = 6.
...............
...............
...............
...............
***............
...............
...............
.....*.........
.....*.........
.....*.........
...............
...............
.............-.
..........-..--
..........--...

Generation = 116, Population = 6.
...............
...............
...............
...............
***............
...............
...............
.....*.........
.....*.........
.....*.........
...............
...............
.............-.
..........-..--
..........--...

Generation = 120, Population = 6.
...............
...............
...............
...............
***............
...............
...............
.....*.........
.....*.........
.....*.........
...............
...............
.............-.
..........-..--
..........--...

Generation = 124, Population = 6.
...............
...............
...............
...............
***............
...............
...............
.....*.........
.....*.........
.....*.........
...............
...............
.............-.
..........-..--
..........--...

Generation = 128, Population = 6.
...............
...............
...............
...............
***............
...............
...............
.....*.........
.....*.........
.....*.........
...............
...............
.............-.
..........-..--
..........--...

Generation = 132, Population = 6.
...............
...............
...............
...............
***............
...............
...............
.....*.........
.....*.........
.....*.........
...............
...............
.............-.
..........-..--
..........--...

Generation = 136, Population = 6.
...............
...............
...............
...............
***............
...............
...............
.....*.........
.....*.........
.....*.........
...............
...............
.............-.
..........-..--
..........--...

Generation = 140, Population = 6.
...............
...............
...............
...............
***............
...............
...............
.....*.........
.....*.........
.....*.........
...............
...............
.............-.
..........-..--
..........--...

Generation = 144, Population = 6.
...............
...............
...............
...............
***............
...............
...............
.....*.........
.....*.........
.....*.........
...............
...............
.............-.
..........-..--
..........--...

Generation = 148, Population = 6.
...............
...............
...............
...............
***............
...............
...............
.....*.........
.....*.........
.....*.........
...............
...............
.............-.
..........-..--
..........--...

Generation = 152, Population = 6.
...............
...............
...............
...............
***............
...............
...............
.....*.........
.....*.........
.....*.........
...............
...............
.............-.
..........-..--
..........--...

Generation = 156, Population = 6.
...............
...............
...............
...............
***............
...............
...............
.....*.........
.....*.........
.....*.........
...............
...............
.............-.
..........-..--
..........--...

Generation = 160, Population = 6.
...............
...............
...............
...............
***............
...............
...............
.....*.........
.....*.........
.....*.........
...............
...............
.............-.
..........-..--
..........--...

Generation = 164, Population = 6.
...............
...............
...............
...............
***............
...............
...............
.....*.........
.....*.........
.....*.........
...............
...............
.............-.
..........-..--
..........--...

Generation = 168, Population = 6.
...............
...............
...............
...............
***............
...............
...............
.....*.........
.....*.........
.....*.........
...............
...............
.............-.
..........-..--
..........--...

Generation = 172, Population = 6.
...............
...............
...............
...............
***............
...............
...............
.....*.........
.....*.........
.....*.........
...............
...............
.............-.
..........-..--
..........--...

Generation = 176, Population = 6.
...............
...............
...............
...............
***............
...............
...............
.....*.........
.....*.........
.....*.........
...............
...............
.............-.
..........-..--
..........--...

Generation = 180, Population = 6.
...............
...............
...............
...............
***............
...............
...............
.....*.........
.....*.........
.....*.........
...............
...............
.............-.
..........-..--
..........--...

Generation = 184, Population = 6.
...............
...............
...............
...............
***............
...............
...............
.....*.........
.....*.........
.....*.........
...............
...............
.............-.
..........-..--
..........--...

Generation = 188, Population = 6.
...............
...............
...............
...............
***............
...............
...............
.....*.........
.....*.........
.....*.........
...............
...............
.............-.
..........-..--
..........--...

Generation = 192, Population = 6.
...............
...............
...............
...............
***............
...............
...............
.....*.........
.....*.........
.....*.........
...............
...............
.............-.
..........-..--
..........--...

Generation = 196, Population = 6.
...............
...............
...............
...............
***............
...............
...............
.....*.........
.....*.........
.....*.........
...............
...............
.............-.
..........-..--
..........--...

Generation = 200, Population = 6.
...............
...............
...............
...............
***............
...............
...............
.....*.........
.....*.........
.....*.........
...............
...............
.............-.
..........-..--
..........--...

*** Life<Cell> 3x3 ***

Generation = 0, Population = 9.
000
000
000

Generation = 7, Population = 0.
---
---
---

*** Life<Cell> 4x4 ***

Generation = 0, Population = 16.
0000
0000
0000
0000

Generation = 2, Population = 8.
-**-
*--*
*--*
-**-

Generation = 4, Population = 8.
-**-
*--*
*--*
-**-

Generation = 6, Population = 8.
-**-
*--*
*--*
-**-

Generation = 8, Population = 8.
-**-
*--*
*--*
-**-

Generation = 10, Population = 8.
-**-
*--*
*--*
-**-

Generation = 12, Population = 8.
-**-
*--*
*--*
-**-

Generation = 14, Population = 8.
-**-
*--*
*--*
-**-

Generation = 16, Population = 8.
-**-
*--*
*--*
-**-

Generation = 18, Population = 8.
-**-
*--*
*--*
-**-

Generation = 20, Population = 8.
-**-
*--*
*--*
-**-
